<?xml version="1.0" encoding="UTF-8" standalone="no"?>
<svg
   xmlns:dc="http://purl.org/dc/elements/1.1/"
   xmlns:cc="http://creativecommons.org/ns#"
   xmlns:rdf="http://www.w3.org/1999/02/22-rdf-syntax-ns#"
   xmlns:svg="http://www.w3.org/2000/svg"
   xmlns="http://www.w3.org/2000/svg"
   xmlns:xlink="http://www.w3.org/1999/xlink"
   xmlns:sodipodi="http://sodipodi.sourceforge.net/DTD/sodipodi-0.dtd"
   xmlns:inkscape="http://www.inkscape.org/namespaces/inkscape"
   viewBox="3 3 16 16"
   version="1.1"
   id="svg23"
   sodipodi:docname="Flat_cross_icon.svg"
   inkscape:version="0.92.5 (2060ec1f9f, 2020-04-08)">
  <metadata
     id="metadata27">
    <rdf:RDF>
      <cc:Work
         rdf:about="">
        <dc:format>image/svg+xml</dc:format>
        <dc:type
           rdf:resource="http://purl.org/dc/dcmitype/StillImage" />
      </cc:Work>
    </rdf:RDF>
  </metadata>
  <sodipodi:namedview
     pagecolor="#ffffff"
     bordercolor="#666666"
     borderopacity="1"
     objecttolerance="10"
     gridtolerance="10"
     guidetolerance="10"
     inkscape:pageopacity="0"
     inkscape:pageshadow="2"
     inkscape:window-width="810"
     inkscape:window-height="480"
     id="namedview25"
     showgrid="false"
     inkscape:zoom="14.75"
     inkscape:cx="0.44067797"
     inkscape:cy="8"
     inkscape:window-x="0"
     inkscape:window-y="27"
     inkscape:window-maximized="0"
     inkscape:current-layer="g21" />
  <defs
     id="defs15">
    <linearGradient
       gradientUnits="userSpaceOnUse"
       y2="-2.623"
       x2="0"
       y1="986.67"
       id="linearGradient6">
      <stop
         stop-color="#ffce3b"
         id="stop2" />
      <stop
         offset="1"
         stop-color="#ffd762"
         id="stop4" />
    </linearGradient>
    <linearGradient
       id="0"
       gradientUnits="userSpaceOnUse"
       y1="986.67"
       x2="0"
       y2="-2.623">
      <stop
         stop-color="#ffce3b"
         id="stop8" />
      <stop
         offset="1"
         stop-color="#fef4ab"
         id="stop10" />
    </linearGradient>
    <linearGradient
       gradientUnits="userSpaceOnUse"
       x2="1"
       x1="0"
       xlink:href="#0"
       id="linearGradient13" />
  </defs>
  <g
     transform="matrix(2 0 0 2-11-2071.72)"
     id="g21">
    <path
       transform="translate(7 1037.36)"
       d="m4 0c-2.216 0-4 1.784-4 4 0 2.216 1.784 4 4 4 2.216 0 4-1.784 4-4 0-2.216-1.784-4-4-4"
       fill="#da4453"
       id="path17"
       style="fill:#ff0000" />
    <path
       d="m11.906 1041.46l.99-.99c.063-.062.094-.139.094-.229 0-.09-.031-.166-.094-.229l-.458-.458c-.063-.062-.139-.094-.229-.094-.09 0-.166.031-.229.094l-.99.99-.99-.99c-.063-.062-.139-.094-.229-.094-.09 0-.166.031-.229.094l-.458.458c-.063.063-.094.139-.094.229 0 .09.031.166.094.229l.99.99-.99.99c-.063.062-.094.139-.094.229 0 .09.031.166.094.229l.458.458c.063.063.139.094.229.094.09 0 .166-.031.229-.094l.99-.99.99.99c.063.063.139.094.229.094.09 0 .166-.031.229-.094l.458-.458c.063-.062.094-.139.094-.229 0-.09-.031-.166-.094-.229l-.99-.99"
       fill="#fff"
       id="path19" />
  </g>
</svg>
