<?xml version="1.0" encoding="UTF-8" standalone="no"?>
<svg
   xmlns:dc="http://purl.org/dc/elements/1.1/"
   xmlns:cc="http://creativecommons.org/ns#"
   xmlns:rdf="http://www.w3.org/1999/02/22-rdf-syntax-ns#"
   xmlns:svg="http://www.w3.org/2000/svg"
   xmlns="http://www.w3.org/2000/svg"
   xmlns:sodipodi="http://sodipodi.sourceforge.net/DTD/sodipodi-0.dtd"
   xmlns:inkscape="http://www.inkscape.org/namespaces/inkscape"
   id="Capa_1"
   enable-background="new 0 0 512 512"
   height="512"
   viewBox="0 0 512 512"
   width="512"
   version="1.1"
   sodipodi:docname="blind.svg"
   inkscape:version="0.92.5 (2060ec1f9f, 2020-04-08)">
  <metadata
     id="metadata61">
    <rdf:RDF>
      <cc:Work
         rdf:about="">
        <dc:format>image/svg+xml</dc:format>
        <dc:type
           rdf:resource="http://purl.org/dc/dcmitype/StillImage" />
      </cc:Work>
    </rdf:RDF>
  </metadata>
  <defs
     id="defs59" />
  <sodipodi:namedview
     pagecolor="#ffffff"
     bordercolor="#666666"
     borderopacity="1"
     objecttolerance="10"
     gridtolerance="10"
     guidetolerance="10"
     inkscape:pageopacity="0"
     inkscape:pageshadow="2"
     inkscape:window-width="1600"
     inkscape:window-height="836"
     id="namedview57"
     showgrid="false"
     inkscape:zoom="0.4609375"
     inkscape:cx="67.97817"
     inkscape:cy="193.62367"
     inkscape:window-x="0"
     inkscape:window-y="27"
     inkscape:window-maximized="1"
     inkscape:current-layer="g54" />
  <g
     id="g54">
    <g
       id="g18"
       style="fill:#ff0000">
      <g
         id="g16"
         style="fill:#ff0000">
        <g
           id="g14"
           style="fill:#ff0000">
          <g
             id="g12"
             style="fill:#ff0000">
            <g
               id="g10"
               style="fill:#ff0000">
              <g
                 id="g8"
                 style="fill:#ff0000">
                <g
                   id="g6"
                   style="fill:#ff0000">
                  <g
                     id="g4"
                     style="fill:#ff0000">
                    <circle
                       cx="256"
                       cy="256"
                       r="256"
                       id="circle2"
                       fill="#ff6c52"
                       style="fill:#ff0000" />
                  </g>
                </g>
              </g>
            </g>
          </g>
        </g>
      </g>
    </g>
    <g
       id="g24">
      <path
         d="m256 375.428c-84.388 0-162.495-45.762-203.842-119.427 41.347-73.666 119.454-119.428 203.842-119.428s162.495 45.762 203.842 119.427c-41.347 73.666-119.454 119.428-203.842 119.428z"
         id="path22"
         fill="#fff" />
    </g>
    <g
       id="g28">
      <path
         d="m459.842 256c-39.983-71.237-116.228-119.382-203.721-119.426v238.853c87.493-.045 163.737-48.19 203.721-119.427z"
         id="path26"
         fill="#e9edf5" />
    </g>
    <g
       id="g32"
       style="fill:#87aade">
      <circle
         cx="256"
         cy="256"
         r="108.89"
         id="circle30"
         fill="#7584f2"
         style="fill:#87aade" />
    </g>
    <g
       id="g40">
      <circle
         cx="256"
         cy="256"
         r="50.455"
         id="circle38"
         fill="#414952" />
    </g>
    <g
       id="g875"
       transform="matrix(1.6833428,0,0,1.691827,-174.90871,-177.08583)">
      <g
         id="g48">
        <path
           id="path46"
           transform="matrix(0.707,-0.707,0.707,0.707,-106.039,255.996)"
           d="m 60.195,241 h 391.609 v 30 H 60.195 Z"
           inkscape:connector-curvature="0"
           style="fill:#707789" />
      </g>
    </g>
  </g>
</svg>
