<?xml version="1.0" encoding="UTF-8" standalone="no"?>
<svg
   viewBox="0 0 33.867 67.734"
   height="256.00201"
   width="128.00101"
   version="1.1"
   id="svg10"
   sodipodi:docname="carreau_marge_terre.svg"
   inkscape:version="1.2.2 (b0a8486541, 2022-12-01)"
   xml:space="preserve"
   xmlns:inkscape="http://www.inkscape.org/namespaces/inkscape"
   xmlns:sodipodi="http://sodipodi.sourceforge.net/DTD/sodipodi-0.dtd"
   xmlns:xlink="http://www.w3.org/1999/xlink"
   xmlns="http://www.w3.org/2000/svg"
   xmlns:svg="http://www.w3.org/2000/svg"><defs
     id="defs14"><linearGradient
       inkscape:collect="always"
       id="linearGradient1279"><stop
         style="stop-color:#5487ff;stop-opacity:1;"
         offset="0"
         id="stop1275" /><stop
         style="stop-color:#5487ff;stop-opacity:0;"
         offset="1"
         id="stop1277" /></linearGradient><linearGradient
       inkscape:collect="always"
       id="linearGradient1183"><stop
         style="stop-color:#d36500;stop-opacity:1;"
         offset="0"
         id="stop1181" /><stop
         style="stop-color:#784400;stop-opacity:1;"
         offset="1"
         id="stop1179" /></linearGradient><inkscape:perspective
       sodipodi:type="inkscape:persp3d"
       inkscape:vp_x="0 : 526.18109 : 1"
       inkscape:vp_y="0 : 1000 : 0"
       inkscape:vp_z="744.09448 : 526.18109 : 1"
       inkscape:persp3d-origin="372.04724 : 350.78739 : 1"
       id="perspective10457" /><linearGradient
       inkscape:collect="always"
       xlink:href="#linearGradient1183"
       id="linearGradient1185"
       x1="32.23399"
       y1="36.113113"
       x2="32.23399"
       y2="50.935276"
       gradientUnits="userSpaceOnUse" /><linearGradient
       inkscape:collect="always"
       xlink:href="#linearGradient1279"
       id="linearGradient1281"
       x1="17.533512"
       y1="8.7183685"
       x2="17.533512"
       y2="32.467262"
       gradientUnits="userSpaceOnUse" /></defs><sodipodi:namedview
     id="namedview12"
     pagecolor="#ffffff"
     bordercolor="#000000"
     borderopacity="0.25"
     inkscape:showpageshadow="2"
     inkscape:pageopacity="0.0"
     inkscape:pagecheckerboard="0"
     inkscape:deskcolor="#d1d1d1"
     showgrid="false"
     inkscape:zoom="3.6874709"
     inkscape:cx="21.966275"
     inkscape:cy="78.780283"
     inkscape:window-width="1440"
     inkscape:window-height="831"
     inkscape:window-x="0"
     inkscape:window-y="0"
     inkscape:window-maximized="1"
     inkscape:current-layer="svg10" /><rect
     style="fill:url(#linearGradient1281);fill-opacity:1;stroke:none;stroke-width:1.29225;stroke-linecap:round;stroke-linejoin:bevel;stroke-dasharray:none"
     id="rect4821"
     width="33.866997"
     height="16.793787"
     x="-4.3368087e-19"
     y="8.6835718" /><rect
     style="fill:#00bd00;fill-opacity:1;stroke:none;stroke-width:0.906017;stroke-linecap:round;stroke-linejoin:bevel;stroke-dasharray:none"
     id="rect4821-3"
     width="33.866997"
     height="8.2552061"
     x="-2.220446e-16"
     y="25.599009" /><path
     d="M 33.867,25.6475 H 0"
     fill="#0000ff"
     stroke="#004af2"
     stroke-width="0.269"
     id="path2"
     sodipodi:nodetypes="cc"
     style="fill:#008000;stroke:#006622;stroke-width:1.05833542;stroke-dasharray:none;stroke-opacity:1" /><path
     d="M 33.867,8.6012241 H 0"
     id="path4"
     style="fill:#2121ff;fill-opacity:1;stroke:#153bff;stroke-width:1.05833542;stroke-dasharray:none;stroke-opacity:1" /><rect
     style="fill:url(#linearGradient1185);fill-opacity:1;stroke:none;stroke-width:1.29225;stroke-linecap:round;stroke-linejoin:bevel;stroke-dasharray:none"
     id="rect4821-6"
     width="33.866997"
     height="16.793787"
     x="0"
     y="34.360878" /><path
     d="M 33.867,51.04781 H 0"
     fill="#0000ff"
     stroke="#004af2"
     stroke-width="0.269"
     id="path2-3"
     sodipodi:nodetypes="cc"
     style="fill:#008000;stroke:#9a0000;stroke-width:1.05833542;stroke-dasharray:none;stroke-opacity:1" /><path
     d="M 33.867,34.001539 H 0"
     id="path4-6"
     style="fill:#803300;fill-opacity:1;stroke:#c09300;stroke-width:1.05833542;stroke-dasharray:none;stroke-opacity:1" /><path
     style="fill:#00ff00;fill-rule:evenodd;stroke:#000000;stroke-width:0.0709618;stroke-opacity:1"
     d="m 0.53964113,27.838351 c -0.0524741,0 -0.10170446,0.147421 -0.14972214,0.408766 -0.0480176,0.261345 -0.0958324,0.637682 -0.1425926,1.105092 -0.0467595,0.46741 -0.0912121,1.024782 -0.12595634,1.646945 -0.034745,0.622164 -0.0587918,1.309492 -0.0451544,2.034321 4.2644e-4,0.02408 0.001837,0.04729 0.002371,0.0713 0.002513,0.125078 0.00694,0.249879 0.0118832,0.373118 h 0.76049391 c -0.004002,-0.128844 -0.008872,-0.258368 -0.0118832,-0.389753 -4.9618e-4,-0.02339 -0.001923,-0.04545 -0.002371,-0.06892 -0.0136681,-0.706653 -0.0129024,-1.384763 -0.0166363,-2.003426 -0.003733,-0.618663 -0.0112416,-1.177922 -0.0332711,-1.649322 -0.0220301,-0.471398 -0.0568744,-0.85309 -0.0998148,-1.116975 -0.0429411,-0.263884 -0.0948723,-0.411142 -0.14734633,-0.411142 z"
     id="path4076"
     inkscape:connector-curvature="0" /><path
     style="fill:#00ff00;fill-rule:evenodd;stroke:#000000;stroke-width:0.0709618;stroke-opacity:1"
     d="m 1.2374141,28.373084 c -0.046632,0.01445 -0.043002,0.1726 -0.011088,0.445729 0.031915,0.273129 0.092392,0.661846 0.1552288,1.14204 0.062837,0.480193 0.1263764,1.052986 0.1774043,1.691993 0.044958,0.562991 0.078845,1.179209 0.104225,1.825047 H 2.3728017 C 2.3436102,32.808122 2.2887106,32.166312 2.2087027,31.581885 2.1192335,30.928348 2.0003421,30.34502 1.8716346,29.86328 1.7429277,29.381541 1.6049022,29.001183 1.4902153,28.745633 1.3755284,28.490084 1.2840467,28.358635 1.2374141,28.373084 Z"
     id="path4068"
     inkscape:connector-curvature="0" /><path
     id="path2902"
     d="m 0.53964113,27.838351 c -0.0524741,0 -0.10170446,0.147421 -0.14972214,0.408766 -0.0480176,0.261345 -0.0958324,0.637682 -0.1425926,1.105092 -0.0467595,0.46741 -0.0912121,1.024782 -0.12595634,1.646945 -0.034745,0.622164 -0.0587918,1.309492 -0.0451544,2.034321 4.2644e-4,0.02408 0.001837,0.04729 0.002371,0.0713 0.002513,0.125078 0.00694,0.249879 0.0118832,0.373118 h 0.76049391 c -0.004002,-0.128844 -0.008872,-0.258368 -0.0118832,-0.389753 -4.9618e-4,-0.02339 -0.001923,-0.04545 -0.002371,-0.06892 -0.0136681,-0.706653 -0.0129024,-1.384763 -0.0166363,-2.003426 -0.003733,-0.618663 -0.0112416,-1.177922 -0.0332711,-1.649322 -0.0220301,-0.471398 -0.0568744,-0.85309 -0.0998148,-1.116975 -0.0429411,-0.263884 -0.0948723,-0.411142 -0.14734633,-0.411142 z"
     style="fill:#00ff00;fill-rule:evenodd;stroke:#000000;stroke-width:0.0709618;stroke-opacity:1"
     inkscape:connector-curvature="0" /><path
     id="path2904"
     d="m 1.2374141,28.373084 c -0.046632,0.01445 -0.043002,0.1726 -0.011088,0.445729 0.031915,0.273129 0.092392,0.661846 0.1552288,1.14204 0.062837,0.480193 0.1263764,1.052986 0.1774043,1.691993 0.044958,0.562991 0.078845,1.179209 0.104225,1.825047 H 2.3728017 C 2.3436102,32.808122 2.2887106,32.166312 2.2087027,31.581885 2.1192335,30.928348 2.0003421,30.34502 1.8716346,29.86328 1.7429277,29.381541 1.6049022,29.001183 1.4902153,28.745633 1.3755284,28.490084 1.2840467,28.358635 1.2374141,28.373084 Z"
     style="fill:#00ff00;fill-rule:evenodd;stroke:#000000;stroke-width:0.0709618;stroke-opacity:1"
     inkscape:connector-curvature="0" /><path
     style="fill:#00ff00;fill-rule:evenodd;stroke:#000000;stroke-width:0.0709618;stroke-opacity:1"
     d="m 1.6256124,27.686329 c -0.053889,0 -0.1044465,0.151395 -0.1537585,0.419785 -0.049312,0.26839 -0.098415,0.654872 -0.1464366,1.134882 -0.04802,0.48001 -0.093671,1.052407 -0.1293511,1.691342 -0.035682,0.638935 -0.060377,1.344792 -0.046372,2.08916 4.264e-4,0.02473 0.00189,0.04856 0.00244,0.07322 0.00258,0.12845 0.00713,0.256614 0.012204,0.383175 h 0.7809892 c -0.00411,-0.132317 -0.00911,-0.265332 -0.012204,-0.400259 -4.961e-4,-0.02402 -0.00197,-0.04667 -0.00244,-0.07078 -0.014036,-0.725702 -0.01325,-1.422092 -0.017085,-2.057432 -0.00383,-0.63534 -0.011545,-1.209675 -0.034168,-1.693783 -0.022624,-0.484106 -0.058408,-0.876087 -0.1025056,-1.147085 -0.044099,-0.270997 -0.09743,-0.422225 -0.1513179,-0.422225 z"
     id="path2922"
     inkscape:connector-curvature="0" /><path
     style="fill:#00ff00;fill-rule:evenodd;stroke:#000000;stroke-width:0.0709618;stroke-opacity:1"
     d="m 2.3421952,28.235474 c -0.04789,0.01484 -0.044162,0.177252 -0.011386,0.457744 0.032775,0.280492 0.094882,0.679688 0.1594133,1.172826 0.064531,0.493137 0.1297826,1.081371 0.1821864,1.737604 0.04617,0.578167 0.08097,1.210997 0.1070345,1.874245 H 3.5081891 C 3.4782106,32.790067 3.4218315,32.130957 3.3396665,31.530774 3.2477853,30.85962 3.1256891,30.260567 2.9935123,29.765841 2.8613355,29.271116 2.7195895,28.880504 2.6018107,28.618066 2.4840327,28.355628 2.3900844,28.220635 2.3421952,28.235474 Z"
     id="path2924"
     inkscape:connector-curvature="0" /><path
     id="path2944"
     d="m 0.43683627,28.959036 c -0.041281,0.01279 -0.038067,0.152789 -0.00982,0.394567 0.028252,0.241778 0.081787,0.585876 0.13741102,1.010952 0.055625,0.425073 0.1118704,0.932119 0.1570411,1.497778 0.039797,0.498368 0.069794,1.043854 0.092262,1.61556 H 1.4418984 C 1.4160578,32.885001 1.3674603,32.316862 1.2966355,31.799516 1.2174358,31.220996 1.1121918,30.704625 0.99825779,30.278182 0.88432449,29.851739 0.76214189,29.51504 0.66061909,29.288823 0.55909699,29.062607 0.47811549,28.946246 0.43683627,28.959036 Z"
     style="fill:#00ff00;fill-rule:evenodd;stroke:#000000;stroke-width:0.0709618;stroke-opacity:1"
     inkscape:connector-curvature="0" /><path
     style="fill:#00ff00;fill-rule:evenodd;stroke:#000000;stroke-width:0.0709618;stroke-opacity:1"
     d="m 3.5376923,28.313205 c 0.039924,0.01344 0.026042,0.175626 -0.025519,0.457383 -0.051562,0.281756 -0.1401156,0.684475 -0.2434138,1.181734 -0.1032975,0.497259 -0.2209067,1.087808 -0.310156,1.747081 -0.074583,0.550931 -0.1291354,1.150157 -0.1374102,1.77849 H 2.1989171 c 0.017132,-0.667149 0.093009,-1.29741 0.1982649,-1.868788 0.1251459,-0.679355 0.2890434,-1.277755 0.4495303,-1.770639 0.1604863,-0.492883 0.3171855,-0.878977 0.4397143,-1.14051 0.1225297,-0.261531 0.2113426,-0.398191 0.2512657,-0.384751 z"
     id="path2960"
     inkscape:connector-curvature="0" /><path
     id="path2970"
     d="m 5.5020241,33.477893 c 0.1894912,-0.584626 0.3853368,-1.141435 0.5654761,-1.663165 0.1941122,-0.562199 0.369492,-1.0866 0.512255,-1.56781 0.083266,-0.28117 0.1560896,-0.546689 0.2151027,-0.793885 0.059014,-0.247194 0.1036721,-0.475817 0.1374883,-0.685224 0.033104,-0.206894 0.054652,-0.394863 0.068744,-0.558823 0.014094,-0.163961 0.020086,-0.303408 0.024393,-0.419118 0.00431,-0.11571 0.00844,-0.207566 0.015524,-0.270541 0.00708,-0.06298 0.0182,-0.09762 0.037698,-0.102008 0.019498,-0.0044 0.046914,0.0221 0.077615,0.07983 0.030701,0.05773 0.065424,0.147636 0.097572,0.266106 0.032148,0.118471 0.060399,0.265852 0.079832,0.441293 0.019434,0.175442 0.027987,0.377415 0.022175,0.600958 -0.00554,0.225925 -0.024125,0.474657 -0.059874,0.740663 -0.035749,0.266004 -0.087491,0.550833 -0.1530113,0.847105 -0.1117213,0.50645 -0.2612687,1.054125 -0.4368579,1.629902 -0.1423948,0.466929 -0.3033976,0.95516 -0.4634687,1.454715 z"
     style="fill:#00ff00;fill-rule:evenodd;stroke:#000000;stroke-width:0.0709618;stroke-opacity:1"
     inkscape:connector-curvature="0" /><path
     style="fill:#00ff00;fill-rule:evenodd;stroke:#000000;stroke-width:0.0709618;stroke-opacity:1"
     d="m 4.4436887,33.477893 c 0.1894912,-0.584626 0.3853368,-1.141435 0.5654761,-1.663165 0.1941122,-0.562199 0.369492,-1.0866 0.512255,-1.56781 0.083266,-0.28117 0.1560896,-0.546689 0.2151027,-0.793885 0.059014,-0.247194 0.1036721,-0.475817 0.1374883,-0.685224 0.033104,-0.206894 0.054652,-0.394863 0.068744,-0.558823 0.014094,-0.163961 0.020086,-0.303408 0.024393,-0.419118 0.00431,-0.11571 0.00844,-0.207566 0.015524,-0.270541 0.00708,-0.06298 0.0182,-0.09762 0.037698,-0.102008 0.019498,-0.0044 0.046914,0.0221 0.077615,0.07983 0.030701,0.05773 0.065424,0.147636 0.097572,0.266106 0.032148,0.118471 0.060399,0.265852 0.079832,0.441293 0.019434,0.175442 0.027987,0.377415 0.022175,0.600958 -0.00554,0.225925 -0.024125,0.474657 -0.059874,0.740663 -0.035749,0.266004 -0.087491,0.550833 -0.1530113,0.847105 -0.1117213,0.50645 -0.2612687,1.054125 -0.4368579,1.629902 -0.1423948,0.466929 -0.3033976,0.95516 -0.4634687,1.454715 z"
     id="path2990"
     inkscape:connector-curvature="0" /><path
     id="path3006"
     d="m 3.332837,33.477893 c 0.00188,-0.14335 0.00257,-0.286783 0,-0.432693 C 3.330857,32.942772 3.325917,32.839007 3.321449,32.735483 3.2940076,32.099711 3.2184497,31.488749 3.0891622,30.929558 2.959875,30.370368 2.7780115,29.862541 2.5562668,29.419687 2.3538244,29.008618 2.1189609,28.653614 1.8821766,28.360728 1.6453915,28.067841 1.405812,27.837664 1.194422,27.657032 0.71656998,27.338265 0.44287206,27.119671 0.46795346,27.058093 c 0.0265318,-0.0608 0.35350361,0.04349 0.92004214,0.286944 0.2600627,0.151983 0.5572553,0.370012 0.8562766,0.664982 0.2990214,0.294968 0.5982302,0.668954 0.8585546,1.115892 0.2740065,0.476308 0.5029822,1.02861 0.6649808,1.635124 0.1619984,0.606516 0.258045,1.266181 0.2846664,1.944842 0.00434,0.110508 0.00598,0.221309 0.00683,0.330213 0.00142,0.14928 -8.047e-4,0.295542 -0.00456,0.441803 H 3.3328287 Z"
     style="fill:#00ff00;fill-rule:evenodd;stroke:#000000;stroke-width:0.0709618;stroke-opacity:1"
     inkscape:connector-curvature="0" /><path
     id="path3010"
     d="M 5.1323515,33.477893 C 5.3269505,32.877507 5.528076,32.305688 5.713071,31.769894 5.9124159,31.19254 6.0925232,30.654003 6.2391343,30.15982 c 0.085511,-0.288749 0.1602977,-0.561426 0.2209018,-0.815285 0.060605,-0.253858 0.1064668,-0.488643 0.1411946,-0.703696 0.033996,-0.212471 0.056125,-0.405507 0.070597,-0.573887 0.014472,-0.168381 0.020627,-0.311587 0.02505,-0.430416 0.00442,-0.118829 0.00867,-0.213162 0.015942,-0.277835 0.00727,-0.06467 0.018691,-0.100253 0.038715,-0.104757 0.020024,-0.0045 0.048179,0.0227 0.079706,0.08198 0.031528,0.05928 0.067187,0.151616 0.100203,0.27328 0.033015,0.121664 0.062027,0.273018 0.081983,0.453189 0.019957,0.180171 0.028741,0.387588 0.022773,0.617157 -0.00569,0.232016 -0.024776,0.487453 -0.061488,0.760629 -0.036713,0.273176 -0.089849,0.565683 -0.1571356,0.869941 -0.1147338,0.520102 -0.2683126,1.082541 -0.4486347,1.673839 -0.146233,0.479516 -0.3115761,0.980909 -0.4759623,1.49393 z"
     style="fill:#00ff00;fill-rule:evenodd;stroke:#000000;stroke-width:0.0709618;stroke-opacity:1"
     inkscape:connector-curvature="0" /><path
     style="fill:#00ff00;fill-rule:evenodd;stroke:#000000;stroke-width:0.0709618;stroke-opacity:1"
     d="m 4.7581743,33.477893 c 0.00164,-0.123565 0.00223,-0.247202 0,-0.372973 -0.00172,-0.08829 -0.00596,-0.177734 -0.00981,-0.266969 C 4.7247054,32.289928 4.6595762,31.763292 4.548133,31.281281 4.4366884,30.799271 4.2799261,30.361534 4.0887866,29.979803 3.914286,29.625471 3.7118386,29.319464 3.507735,29.067003 3.3036315,28.814541 3.0971187,28.616132 2.9149052,28.460431 2.5030065,28.185661 2.2670843,27.997238 2.2887042,27.944159 c 0.02287,-0.05241 0.3047132,0.03749 0.7930567,0.247339 0.2241688,0.131007 0.4803428,0.318943 0.7380928,0.573201 0.2577508,0.254257 0.5156625,0.576625 0.7400563,0.961876 0.2361882,0.410567 0.4335604,0.886641 0.5731997,1.409444 0.1396398,0.522803 0.2224295,1.091421 0.245377,1.676412 0.00374,0.09526 0.00515,0.190764 0.00588,0.284637 0.00123,0.128676 -6.973e-4,0.254751 -0.00392,0.380825 H 4.7581694 Z"
     id="path3026"
     inkscape:connector-curvature="0" /><path
     style="fill:#00ff00;fill-rule:evenodd;stroke:#000000;stroke-width:0.067773;stroke-opacity:1"
     d="m 3.7012675,33.477893 c 0.013297,-0.111659 0.028117,-0.223483 0.039257,-0.336606 0.066048,-0.670662 0.087015,-1.321703 0.068048,-1.936078 C 3.7866015,30.485965 3.7089185,29.816017 3.6044311,29.218998 3.4999441,28.621979 3.369627,28.099079 3.2484905,27.664884 3.1273552,27.230688 3.017559,26.884975 2.9501305,26.64313 c -0.067429,-0.241845 -0.092887,-0.380302 -0.049727,-0.398674 0.04316,-0.01837 0.1504226,0.08507 0.2983608,0.300796 0.1479395,0.21573 0.3376728,0.544452 0.5312924,0.974008 0.1936185,0.429556 0.3892847,0.961143 0.5496122,1.577987 0.1603272,0.616845 0.2834579,1.31861 0.3323853,2.076927 0.04153,0.64642 0.032319,1.33265 -0.036641,2.036344 -0.00881,0.08993 -0.01824,0.178424 -0.028789,0.267375 z"
     id="path3028"
     inkscape:connector-curvature="0" /><path
     style="fill:#00ff00;fill-rule:evenodd;stroke:#000000;stroke-width:0.0709618;stroke-opacity:1"
     d="m 6.6717126,27.838351 c -0.052474,0 -0.1017044,0.147421 -0.1497221,0.408766 -0.048018,0.261345 -0.095832,0.637682 -0.1425926,1.105092 -0.04676,0.46741 -0.091212,1.024782 -0.1259563,1.646945 -0.034745,0.622164 -0.058792,1.309492 -0.045154,2.034321 4.264e-4,0.02408 0.00184,0.04729 0.00237,0.0713 0.00251,0.125078 0.00694,0.249879 0.011883,0.373118 h 0.7604939 c -0.004,-0.128844 -0.00887,-0.258368 -0.011883,-0.389753 -4.962e-4,-0.02339 -0.00192,-0.04545 -0.00237,-0.06892 -0.013668,-0.706653 -0.012902,-1.384763 -0.016636,-2.003426 -0.00373,-0.618663 -0.011242,-1.177922 -0.033271,-1.649322 -0.02203,-0.471398 -0.056874,-0.85309 -0.099815,-1.116975 -0.042941,-0.263884 -0.094872,-0.411142 -0.1473464,-0.411142 z"
     id="path989"
     inkscape:connector-curvature="0" /><path
     style="fill:#00ff00;fill-rule:evenodd;stroke:#000000;stroke-width:0.0709618;stroke-opacity:1"
     d="m 7.3694856,28.373084 c -0.046632,0.01445 -0.043002,0.1726 -0.011088,0.445729 0.031915,0.273129 0.092392,0.661846 0.1552288,1.14204 0.062837,0.480193 0.1263764,1.052986 0.1774043,1.691993 0.044958,0.562991 0.078845,1.179209 0.104225,1.825047 H 8.5048732 C 8.4756817,32.808122 8.4207821,32.166312 8.3407742,31.581885 8.251305,30.928348 8.1324136,30.34502 8.0037061,29.86328 7.8749992,29.381541 7.7369737,29.001183 7.6222868,28.745633 7.5075999,28.490084 7.4161182,28.358635 7.3694856,28.373084 Z"
     id="path991"
     inkscape:connector-curvature="0" /><path
     id="path993"
     d="m 6.6717126,27.838351 c -0.052474,0 -0.1017044,0.147421 -0.1497221,0.408766 -0.048018,0.261345 -0.095832,0.637682 -0.1425926,1.105092 -0.04676,0.46741 -0.091212,1.024782 -0.1259563,1.646945 -0.034745,0.622164 -0.058792,1.309492 -0.045154,2.034321 4.264e-4,0.02408 0.00184,0.04729 0.00237,0.0713 0.00251,0.125078 0.00694,0.249879 0.011883,0.373118 h 0.7604939 c -0.004,-0.128844 -0.00887,-0.258368 -0.011883,-0.389753 -4.962e-4,-0.02339 -0.00192,-0.04545 -0.00237,-0.06892 -0.013668,-0.706653 -0.012902,-1.384763 -0.016636,-2.003426 -0.00373,-0.618663 -0.011242,-1.177922 -0.033271,-1.649322 -0.02203,-0.471398 -0.056874,-0.85309 -0.099815,-1.116975 -0.042941,-0.263884 -0.094872,-0.411142 -0.1473464,-0.411142 z"
     style="fill:#00ff00;fill-rule:evenodd;stroke:#000000;stroke-width:0.0709618;stroke-opacity:1"
     inkscape:connector-curvature="0" /><path
     id="path995"
     d="m 7.3694856,28.373084 c -0.046632,0.01445 -0.043002,0.1726 -0.011088,0.445729 0.031915,0.273129 0.092392,0.661846 0.1552288,1.14204 0.062837,0.480193 0.1263764,1.052986 0.1774043,1.691993 0.044958,0.562991 0.078845,1.179209 0.104225,1.825047 H 8.5048732 C 8.4756817,32.808122 8.4207821,32.166312 8.3407742,31.581885 8.251305,30.928348 8.1324136,30.34502 8.0037061,29.86328 7.8749992,29.381541 7.7369737,29.001183 7.6222868,28.745633 7.5075999,28.490084 7.4161182,28.358635 7.3694856,28.373084 Z"
     style="fill:#00ff00;fill-rule:evenodd;stroke:#000000;stroke-width:0.0709618;stroke-opacity:1"
     inkscape:connector-curvature="0" /><path
     style="fill:#00ff00;fill-rule:evenodd;stroke:#000000;stroke-width:0.0709618;stroke-opacity:1"
     d="m 7.7576839,27.686329 c -0.053889,0 -0.1044465,0.151395 -0.1537585,0.419785 -0.049312,0.26839 -0.098415,0.654872 -0.1464366,1.134882 -0.04802,0.48001 -0.093671,1.052407 -0.1293511,1.691342 -0.035682,0.638935 -0.060377,1.344792 -0.046372,2.08916 4.264e-4,0.02473 0.00189,0.04856 0.00244,0.07322 0.00258,0.12845 0.00713,0.256614 0.012204,0.383175 h 0.7809892 c -0.00411,-0.132317 -0.00911,-0.265332 -0.012204,-0.400259 -4.961e-4,-0.02402 -0.00197,-0.04667 -0.00244,-0.07078 -0.014036,-0.725702 -0.01325,-1.422092 -0.017085,-2.057432 -0.00383,-0.63534 -0.011545,-1.209675 -0.034168,-1.693783 -0.022624,-0.484106 -0.058408,-0.876087 -0.1025056,-1.147085 -0.044099,-0.270997 -0.09743,-0.422225 -0.1513179,-0.422225 z"
     id="path997"
     inkscape:connector-curvature="0" /><path
     style="fill:#00ff00;fill-rule:evenodd;stroke:#000000;stroke-width:0.0709618;stroke-opacity:1"
     d="m 8.4742667,28.235474 c -0.04789,0.01484 -0.044162,0.177252 -0.011386,0.457744 0.032775,0.280492 0.094882,0.679688 0.1594133,1.172826 0.064531,0.493137 0.1297826,1.081371 0.1821864,1.737604 0.04617,0.578167 0.08097,1.210997 0.1070345,1.874245 H 9.6402606 C 9.6102821,32.790067 9.553903,32.130957 9.471738,31.530774 9.3798568,30.85962 9.2577606,30.260567 9.1255838,29.765841 8.993407,29.271116 8.851661,28.880504 8.7338822,28.618066 8.6161042,28.355628 8.5221559,28.220635 8.4742667,28.235474 Z"
     id="path999"
     inkscape:connector-curvature="0" /><path
     id="path1001"
     d="m 6.5689078,28.959036 c -0.041281,0.01279 -0.038067,0.152789 -0.00982,0.394567 0.028252,0.241778 0.081787,0.585876 0.137411,1.010952 0.055625,0.425073 0.1118704,0.932119 0.1570411,1.497778 0.039797,0.498368 0.069794,1.043854 0.092262,1.61556 h 0.628168 C 7.5481293,32.885001 7.4995318,32.316862 7.428707,31.799516 7.3495073,31.220996 7.2442633,30.704625 7.1303293,30.278182 7.016396,29.851739 6.8942134,29.51504 6.7926906,29.288823 6.6911685,29.062607 6.610187,28.946246 6.5689078,28.959036 Z"
     style="fill:#00ff00;fill-rule:evenodd;stroke:#000000;stroke-width:0.0709618;stroke-opacity:1"
     inkscape:connector-curvature="0" /><path
     style="fill:#00ff00;fill-rule:evenodd;stroke:#000000;stroke-width:0.0709618;stroke-opacity:1"
     d="m 9.6697638,28.313205 c 0.039924,0.01344 0.026042,0.175626 -0.025519,0.457383 -0.051562,0.281756 -0.1401156,0.684475 -0.2434138,1.181734 -0.1032975,0.497259 -0.2209067,1.087808 -0.310156,1.747081 -0.074583,0.550931 -0.1291354,1.150157 -0.1374102,1.77849 H 8.3309886 c 0.017132,-0.667149 0.093009,-1.29741 0.1982649,-1.868788 0.1251459,-0.679355 0.2890434,-1.277755 0.4495303,-1.770639 0.1604863,-0.492883 0.3171855,-0.878977 0.4397143,-1.14051 0.1225297,-0.261531 0.2113426,-0.398191 0.2512657,-0.384751 z"
     id="path1003"
     inkscape:connector-curvature="0" /><path
     id="path1005"
     d="m 11.634096,33.477893 c 0.189491,-0.584626 0.385336,-1.141435 0.565476,-1.663165 0.194112,-0.562199 0.369492,-1.0866 0.512255,-1.56781 0.08327,-0.28117 0.156089,-0.546689 0.215102,-0.793885 0.05901,-0.247194 0.103673,-0.475817 0.137489,-0.685224 0.0331,-0.206894 0.05465,-0.394863 0.06874,-0.558823 0.01409,-0.163961 0.02009,-0.303408 0.02439,-0.419118 0.0043,-0.11571 0.0084,-0.207566 0.01552,-0.270541 0.0071,-0.06298 0.0182,-0.09762 0.0377,-0.102008 0.0195,-0.0044 0.04691,0.0221 0.07761,0.07983 0.0307,0.05773 0.06542,0.147636 0.09757,0.266106 0.03215,0.118471 0.0604,0.265852 0.07983,0.441293 0.01943,0.175442 0.02799,0.377415 0.02218,0.600958 -0.0055,0.225925 -0.02412,0.474657 -0.05987,0.740663 -0.03575,0.266004 -0.08749,0.550833 -0.153012,0.847105 -0.111721,0.50645 -0.261268,1.054125 -0.436857,1.629902 -0.142395,0.466929 -0.303398,0.95516 -0.463469,1.454715 z"
     style="fill:#00ff00;fill-rule:evenodd;stroke:#000000;stroke-width:0.0709618;stroke-opacity:1"
     inkscape:connector-curvature="0" /><path
     style="fill:#00ff00;fill-rule:evenodd;stroke:#000000;stroke-width:0.0709618;stroke-opacity:1"
     d="m 10.57576,33.477893 c 0.189491,-0.584626 0.385337,-1.141435 0.565476,-1.663165 0.194113,-0.562199 0.369492,-1.0866 0.512255,-1.56781 0.08327,-0.28117 0.15609,-0.546689 0.215103,-0.793885 0.05901,-0.247194 0.103672,-0.475817 0.137488,-0.685224 0.0331,-0.206894 0.05465,-0.394863 0.06874,-0.558823 0.01409,-0.163961 0.02009,-0.303408 0.02439,-0.419118 0.0043,-0.11571 0.0084,-0.207566 0.01552,-0.270541 0.0071,-0.06298 0.0182,-0.09762 0.0377,-0.102008 0.0195,-0.0044 0.04691,0.0221 0.07761,0.07983 0.0307,0.05773 0.06542,0.147636 0.09757,0.266106 0.03215,0.118471 0.0604,0.265852 0.07983,0.441293 0.01943,0.175442 0.02799,0.377415 0.02217,0.600958 -0.0055,0.225925 -0.02412,0.474657 -0.05987,0.740663 -0.03575,0.266004 -0.08749,0.550833 -0.153011,0.847105 -0.111721,0.50645 -0.261269,1.054125 -0.436858,1.629902 -0.142395,0.466929 -0.303397,0.95516 -0.463469,1.454715 z"
     id="path1007"
     inkscape:connector-curvature="0" /><path
     id="path1009"
     d="m 9.4649085,33.477893 c 0.00188,-0.14335 0.00257,-0.286783 0,-0.432693 -0.00198,-0.102428 -0.00692,-0.206193 -0.011388,-0.309717 C 9.4260791,32.099711 9.3505212,31.488749 9.2212337,30.929558 9.0919465,30.370368 8.910083,29.862541 8.6883383,29.419687 8.4858959,29.008618 8.2510324,28.653614 8.0142481,28.360728 7.777463,28.067841 7.5378835,27.837664 7.3264935,27.657032 6.8486415,27.338265 6.5749436,27.119671 6.600025,27.058093 c 0.026532,-0.0608 0.3535036,0.04349 0.9200421,0.286944 0.2600627,0.151983 0.5572553,0.370012 0.8562766,0.664982 0.2990214,0.294968 0.5982302,0.668954 0.8585546,1.115892 0.2740065,0.476308 0.5029822,1.02861 0.6649808,1.635124 0.1619989,0.606516 0.2580449,1.266181 0.2846669,1.944842 0.0043,0.110508 0.006,0.221309 0.0068,0.330213 0.0014,0.14928 -8.05e-4,0.295542 -0.0046,0.441803 H 9.4649002 Z"
     style="fill:#00ff00;fill-rule:evenodd;stroke:#000000;stroke-width:0.0709618;stroke-opacity:1"
     inkscape:connector-curvature="0" /><path
     id="path1011"
     d="m 11.264423,33.477893 c 0.194599,-0.600386 0.395725,-1.172205 0.58072,-1.707999 0.199344,-0.577354 0.379452,-1.115891 0.526063,-1.610074 0.08551,-0.288749 0.160298,-0.561426 0.220902,-0.815285 0.06061,-0.253858 0.106466,-0.488643 0.141194,-0.703696 0.034,-0.212471 0.05612,-0.405507 0.0706,-0.573887 0.01447,-0.168381 0.02063,-0.311587 0.02505,-0.430416 0.0044,-0.118829 0.0087,-0.213162 0.01594,-0.277835 0.0073,-0.06467 0.01869,-0.100253 0.03871,-0.104757 0.02002,-0.0045 0.04818,0.0227 0.07971,0.08198 0.03153,0.05928 0.06719,0.151616 0.100203,0.27328 0.03301,0.121664 0.06203,0.273018 0.08198,0.453189 0.01996,0.180171 0.02874,0.387588 0.02277,0.617157 -0.0057,0.232016 -0.02478,0.487453 -0.06149,0.760629 -0.03671,0.273176 -0.08985,0.565683 -0.157135,0.869941 -0.114734,0.520102 -0.268313,1.082541 -0.448635,1.673839 -0.146233,0.479516 -0.311576,0.980909 -0.475962,1.49393 z"
     style="fill:#00ff00;fill-rule:evenodd;stroke:#000000;stroke-width:0.0709618;stroke-opacity:1"
     inkscape:connector-curvature="0" /><path
     style="fill:#00ff00;fill-rule:evenodd;stroke:#000000;stroke-width:0.0709618;stroke-opacity:1"
     d="m 10.890246,33.477893 c 0.0016,-0.123565 0.0022,-0.247202 0,-0.372973 -0.0017,-0.08829 -0.006,-0.177734 -0.0098,-0.266969 -0.02366,-0.548023 -0.08879,-1.074659 -0.200231,-1.55667 -0.111445,-0.48201 -0.268207,-0.919747 -0.459347,-1.301478 -0.1745,-0.354332 -0.3769479,-0.660339 -0.5810515,-0.9128 C 9.435703,28.814541 9.2291902,28.616132 9.0469767,28.460431 8.635078,28.185661 8.3991558,27.997238 8.4207757,27.944159 c 0.02287,-0.05241 0.3047132,0.03749 0.7930567,0.247339 0.2241688,0.131007 0.4803428,0.318943 0.7380928,0.573201 0.2577508,0.254257 0.5156628,0.576625 0.7400568,0.961876 0.236188,0.410567 0.43356,0.886641 0.573199,1.409444 0.13964,0.522803 0.22243,1.091421 0.245377,1.676412 0.0037,0.09526 0.0052,0.190764 0.0059,0.284637 0.0012,0.128676 -6.97e-4,0.254751 -0.0039,0.380825 h -0.622277 z"
     id="path1013"
     inkscape:connector-curvature="0" /><path
     style="fill:#00ff00;fill-rule:evenodd;stroke:#000000;stroke-width:0.067773;stroke-opacity:1"
     d="M 9.833339,33.477893 C 9.846636,33.366234 9.861456,33.25441 9.872596,33.141287 9.938644,32.470625 9.959611,31.819584 9.940644,31.205209 9.918673,30.485965 9.84099,29.816017 9.7365026,29.218998 9.6320156,28.621979 9.5016985,28.099079 9.380562,27.664884 9.2594267,27.230688 9.1496305,26.884975 9.082202,26.64313 9.014773,26.401285 8.989315,26.262828 9.032475,26.244456 c 0.04316,-0.01837 0.1504226,0.08507 0.2983608,0.300796 0.1479395,0.21573 0.3376728,0.544452 0.5312924,0.974008 0.1936188,0.429556 0.3892848,0.961143 0.5496118,1.577987 0.160328,0.616845 0.283458,1.31861 0.332386,2.076927 0.04153,0.64642 0.03232,1.33265 -0.03664,2.036344 -0.0088,0.08993 -0.01824,0.178424 -0.02879,0.267375 z"
     id="path1015"
     inkscape:connector-curvature="0" /><path
     style="fill:#00ff00;fill-rule:evenodd;stroke:#000000;stroke-width:0.0709618;stroke-opacity:1"
     d="m 12.701478,27.838351 c -0.05247,0 -0.101704,0.147421 -0.149722,0.408766 -0.04802,0.261345 -0.09583,0.637682 -0.142592,1.105092 -0.04676,0.46741 -0.09121,1.024782 -0.125957,1.646945 -0.03475,0.622164 -0.05879,1.309492 -0.04515,2.034321 4.27e-4,0.02408 0.0018,0.04729 0.0024,0.0713 0.0025,0.125078 0.0069,0.249879 0.01188,0.373118 H 13.0128 c -0.004,-0.128844 -0.0089,-0.258368 -0.01188,-0.389753 -4.96e-4,-0.02339 -0.0019,-0.04545 -0.0024,-0.06892 -0.01367,-0.706653 -0.0129,-1.384763 -0.01664,-2.003426 -0.0037,-0.618663 -0.01124,-1.177922 -0.03327,-1.649322 -0.02203,-0.471398 -0.05687,-0.85309 -0.09981,-1.116975 -0.04294,-0.263884 -0.09487,-0.411142 -0.147346,-0.411142 z"
     id="path4076-3"
     inkscape:connector-curvature="0" /><path
     style="fill:#00ff00;fill-rule:evenodd;stroke:#000000;stroke-width:0.0709618;stroke-opacity:1"
     d="m 13.399251,28.373083 c -0.04663,0.01445 -0.043,0.1726 -0.01109,0.445729 0.03191,0.273129 0.09239,0.661846 0.155229,1.14204 0.06284,0.480193 0.126377,1.052986 0.177404,1.691993 0.04496,0.562991 0.07884,1.179209 0.104225,1.825048 h 0.709618 c -0.02919,-0.669772 -0.08409,-1.311582 -0.164099,-1.896009 -0.08947,-0.653537 -0.208361,-1.236864 -0.337068,-1.718605 -0.128707,-0.481739 -0.266733,-0.862097 -0.381419,-1.117646 -0.114687,-0.25555 -0.206169,-0.386999 -0.252802,-0.37255 z"
     id="path4068-6"
     inkscape:connector-curvature="0" /><path
     id="path2902-0"
     d="m 12.701478,27.838351 c -0.05247,0 -0.101704,0.147421 -0.149722,0.408766 -0.04802,0.261345 -0.09583,0.637682 -0.142592,1.105092 -0.04676,0.46741 -0.09121,1.024782 -0.125957,1.646945 -0.03475,0.622164 -0.05879,1.309492 -0.04515,2.034321 4.27e-4,0.02408 0.0018,0.04729 0.0024,0.0713 0.0025,0.125078 0.0069,0.249879 0.01188,0.373118 H 13.0128 c -0.004,-0.128844 -0.0089,-0.258368 -0.01188,-0.389753 -4.96e-4,-0.02339 -0.0019,-0.04545 -0.0024,-0.06892 -0.01367,-0.706653 -0.0129,-1.384763 -0.01664,-2.003426 -0.0037,-0.618663 -0.01124,-1.177922 -0.03327,-1.649322 -0.02203,-0.471398 -0.05687,-0.85309 -0.09981,-1.116975 -0.04294,-0.263884 -0.09487,-0.411142 -0.147346,-0.411142 z"
     style="fill:#00ff00;fill-rule:evenodd;stroke:#000000;stroke-width:0.0709618;stroke-opacity:1"
     inkscape:connector-curvature="0" /><path
     id="path2904-6"
     d="m 13.399251,28.373083 c -0.04663,0.01445 -0.043,0.1726 -0.01109,0.445729 0.03191,0.273129 0.09239,0.661846 0.155229,1.14204 0.06284,0.480193 0.126377,1.052986 0.177404,1.691993 0.04496,0.562991 0.07884,1.179209 0.104225,1.825048 h 0.709618 c -0.02919,-0.669772 -0.08409,-1.311582 -0.164099,-1.896009 -0.08947,-0.653537 -0.208361,-1.236864 -0.337068,-1.718605 -0.128707,-0.481739 -0.266733,-0.862097 -0.381419,-1.117646 -0.114687,-0.25555 -0.206169,-0.386999 -0.252802,-0.37255 z"
     style="fill:#00ff00;fill-rule:evenodd;stroke:#000000;stroke-width:0.0709618;stroke-opacity:1"
     inkscape:connector-curvature="0" /><path
     style="fill:#00ff00;fill-rule:evenodd;stroke:#000000;stroke-width:0.0709618;stroke-opacity:1"
     d="m 13.78745,27.686328 c -0.05389,0 -0.104447,0.151396 -0.153759,0.419786 -0.04931,0.26839 -0.09842,0.654872 -0.146436,1.134882 -0.04802,0.48001 -0.09367,1.052407 -0.129352,1.691342 -0.03568,0.638935 -0.06038,1.344791 -0.04637,2.089159 4.27e-4,0.02473 0.0019,0.04856 0.0024,0.07322 0.0026,0.12845 0.0071,0.256614 0.0122,0.383176 h 0.78099 c -0.0041,-0.132317 -0.0091,-0.265333 -0.0122,-0.400259 -4.96e-4,-0.02402 -0.002,-0.04667 -0.0024,-0.07078 -0.01404,-0.725702 -0.01325,-1.422092 -0.01708,-2.057432 -0.0038,-0.63534 -0.01154,-1.209675 -0.03417,-1.693783 -0.02262,-0.484106 -0.05841,-0.876087 -0.102506,-1.147085 -0.0441,-0.270997 -0.09743,-0.422225 -0.151318,-0.422225 z"
     id="path2922-2"
     inkscape:connector-curvature="0" /><path
     style="fill:#00ff00;fill-rule:evenodd;stroke:#000000;stroke-width:0.0709618;stroke-opacity:1"
     d="m 14.504032,28.235473 c -0.04789,0.01484 -0.04416,0.177252 -0.01139,0.457745 0.03277,0.280491 0.09488,0.679687 0.159414,1.172826 0.06453,0.493137 0.129782,1.081371 0.182186,1.737604 0.04617,0.578166 0.08097,1.210997 0.107035,1.874245 h 0.728745 c -0.02998,-0.687827 -0.08636,-1.346936 -0.168522,-1.94712 -0.09188,-0.671154 -0.213978,-1.270206 -0.346154,-1.764932 -0.132177,-0.494726 -0.273923,-0.885338 -0.391702,-1.147776 -0.117778,-0.262438 -0.211726,-0.39743 -0.259616,-0.382592 z"
     id="path2924-6"
     inkscape:connector-curvature="0" /><path
     id="path2944-1"
     d="m 12.598674,28.959035 c -0.04128,0.01279 -0.03807,0.152789 -0.0098,0.394567 0.02825,0.241778 0.08179,0.585876 0.137411,1.010952 0.05563,0.425073 0.11187,0.932119 0.157041,1.497778 0.0398,0.498368 0.06979,1.043855 0.09226,1.615561 h 0.628168 c -0.02584,-0.592892 -0.07444,-1.161032 -0.145263,-1.678378 -0.0792,-0.57852 -0.184444,-1.094891 -0.298378,-1.521334 -0.113933,-0.426443 -0.236116,-0.763142 -0.337639,-0.989359 -0.101522,-0.226216 -0.182503,-0.342577 -0.223782,-0.329787 z"
     style="fill:#00ff00;fill-rule:evenodd;stroke:#000000;stroke-width:0.0709618;stroke-opacity:1"
     inkscape:connector-curvature="0" /><path
     style="fill:#00ff00;fill-rule:evenodd;stroke:#000000;stroke-width:0.0709618;stroke-opacity:1"
     d="m 15.69953,28.313204 c 0.03992,0.01344 0.02604,0.175626 -0.02552,0.457383 -0.05156,0.281757 -0.140116,0.684475 -0.243414,1.181734 -0.103298,0.497259 -0.220907,1.087808 -0.310156,1.747081 -0.07458,0.550932 -0.129136,1.150157 -0.13741,1.778491 h -0.622277 c 0.01713,-0.66715 0.09301,-1.29741 0.198265,-1.868788 0.125146,-0.679355 0.289044,-1.277755 0.449531,-1.770639 0.160486,-0.492883 0.317185,-0.878977 0.439714,-1.14051 0.12253,-0.261531 0.211342,-0.398191 0.251267,-0.384752 z"
     id="path2960-8"
     inkscape:connector-curvature="0" /><path
     id="path2970-7"
     d="m 17.663861,33.477893 c 0.189492,-0.584626 0.385337,-1.141436 0.565476,-1.663165 0.194113,-0.562199 0.369492,-1.0866 0.512255,-1.567811 0.08327,-0.281169 0.15609,-0.546689 0.215103,-0.793884 0.05901,-0.247195 0.103672,-0.475817 0.137488,-0.685225 0.0331,-0.206893 0.05465,-0.394863 0.06874,-0.558823 0.01409,-0.163961 0.02009,-0.303408 0.02439,-0.419118 0.0043,-0.11571 0.0084,-0.207566 0.01552,-0.270541 0.0071,-0.06298 0.0182,-0.09762 0.0377,-0.102008 0.0195,-0.0044 0.04691,0.0221 0.07761,0.07983 0.0307,0.05773 0.06542,0.147636 0.09757,0.266106 0.03215,0.118471 0.0604,0.265852 0.07983,0.441293 0.01943,0.175442 0.02799,0.377415 0.02218,0.600958 -0.0055,0.225925 -0.02412,0.474657 -0.05987,0.740663 -0.03575,0.266004 -0.08749,0.550833 -0.153011,0.847105 -0.111721,0.50645 -0.261269,1.054125 -0.436858,1.629902 -0.142395,0.466929 -0.303397,0.95516 -0.463468,1.454715 z"
     style="fill:#00ff00;fill-rule:evenodd;stroke:#000000;stroke-width:0.0709618;stroke-opacity:1"
     inkscape:connector-curvature="0" /><path
     style="fill:#00ff00;fill-rule:evenodd;stroke:#000000;stroke-width:0.0709618;stroke-opacity:1"
     d="m 16.605526,33.477893 c 0.189491,-0.584626 0.385337,-1.141436 0.565476,-1.663165 0.194112,-0.562199 0.369492,-1.0866 0.512255,-1.567811 0.08327,-0.281169 0.15609,-0.546689 0.215103,-0.793884 0.05901,-0.247195 0.103672,-0.475817 0.137488,-0.685225 0.0331,-0.206893 0.05465,-0.394863 0.06874,-0.558823 0.01409,-0.163961 0.02009,-0.303408 0.02439,-0.419118 0.0043,-0.11571 0.0084,-0.207566 0.01552,-0.270541 0.0071,-0.06298 0.0182,-0.09762 0.0377,-0.102008 0.0195,-0.0044 0.04691,0.0221 0.07762,0.07983 0.0307,0.05773 0.06542,0.147636 0.09757,0.266106 0.03215,0.118471 0.0604,0.265852 0.07983,0.441293 0.01943,0.175442 0.02799,0.377415 0.02218,0.600958 -0.0055,0.225925 -0.02412,0.474657 -0.05987,0.740663 -0.03575,0.266004 -0.08749,0.550833 -0.153011,0.847105 -0.111722,0.50645 -0.261269,1.054125 -0.436858,1.629902 -0.142395,0.466929 -0.303398,0.95516 -0.463469,1.454715 z"
     id="path2990-9"
     inkscape:connector-curvature="0" /><path
     id="path3006-2"
     d="m 15.494674,33.477893 c 0.0019,-0.14335 0.0026,-0.286783 0,-0.432693 -0.002,-0.102429 -0.0069,-0.206193 -0.01139,-0.309717 -0.02744,-0.635773 -0.102999,-1.246735 -0.232287,-1.805926 -0.129287,-0.55919 -0.31115,-1.067017 -0.532895,-1.509871 -0.202442,-0.411069 -0.437306,-0.766073 -0.67409,-1.058958 -0.236785,-0.292887 -0.476365,-0.523065 -0.687755,-0.703697 -0.477852,-0.318767 -0.75155,-0.537361 -0.726468,-0.598939 0.02653,-0.0608 0.353503,0.04349 0.920042,0.286944 0.260063,0.151983 0.557255,0.370012 0.856276,0.664982 0.299022,0.294968 0.598231,0.668954 0.858555,1.115892 0.274007,0.476308 0.502982,1.02861 0.664981,1.635124 0.161998,0.606516 0.258045,1.266181 0.284666,1.944842 0.0043,0.110508 0.006,0.221309 0.0068,0.330213 0.0014,0.14928 -8.04e-4,0.295542 -0.0046,0.441803 h -0.721915 z"
     style="fill:#00ff00;fill-rule:evenodd;stroke:#000000;stroke-width:0.0709618;stroke-opacity:1"
     inkscape:connector-curvature="0" /><path
     id="path3010-0"
     d="m 17.294189,33.477893 c 0.194599,-0.600386 0.395724,-1.172205 0.580719,-1.708 0.199345,-0.577354 0.379452,-1.115891 0.526064,-1.610074 0.08551,-0.288749 0.160297,-0.561426 0.220901,-0.815285 0.0606,-0.253858 0.106467,-0.488643 0.141195,-0.703696 0.034,-0.212471 0.05612,-0.405507 0.0706,-0.573887 0.01447,-0.168381 0.02063,-0.311587 0.02505,-0.430416 0.0044,-0.118829 0.0087,-0.213162 0.01594,-0.277835 0.0073,-0.06467 0.01869,-0.100252 0.03871,-0.104757 0.02002,-0.0045 0.04818,0.0227 0.07971,0.08198 0.03153,0.05928 0.06719,0.151616 0.100203,0.27328 0.03301,0.121663 0.06203,0.273018 0.08198,0.453188 0.01996,0.180172 0.02874,0.387588 0.02277,0.617157 -0.0057,0.232016 -0.02478,0.487453 -0.06149,0.760629 -0.03671,0.273176 -0.08985,0.565683 -0.157136,0.869942 -0.114733,0.520102 -0.268312,1.08254 -0.448634,1.673839 -0.146233,0.479516 -0.311576,0.980909 -0.475963,1.49393 z"
     style="fill:#00ff00;fill-rule:evenodd;stroke:#000000;stroke-width:0.0709618;stroke-opacity:1"
     inkscape:connector-curvature="0" /><path
     style="fill:#00ff00;fill-rule:evenodd;stroke:#000000;stroke-width:0.0709618;stroke-opacity:1"
     d="m 16.920012,33.477893 c 0.0016,-0.123565 0.0022,-0.247203 0,-0.372974 -0.0017,-0.08829 -0.006,-0.177734 -0.0098,-0.266969 -0.02366,-0.548022 -0.08879,-1.074659 -0.200232,-1.55667 -0.111444,-0.48201 -0.268207,-0.919747 -0.459346,-1.301478 -0.174501,-0.354332 -0.376948,-0.660339 -0.581052,-0.9128 -0.204103,-0.252462 -0.410616,-0.450871 -0.59283,-0.606572 -0.411898,-0.27477 -0.64782,-0.463193 -0.626201,-0.516272 0.02287,-0.05241 0.304714,0.03749 0.793057,0.247339 0.224169,0.131007 0.480343,0.318943 0.738093,0.573201 0.257751,0.254257 0.515662,0.576625 0.740056,0.961876 0.236188,0.410567 0.433561,0.886642 0.5732,1.409444 0.13964,0.522803 0.222429,1.091422 0.245377,1.676413 0.0037,0.09526 0.0052,0.190764 0.0059,0.284636 0.0012,0.128676 -6.97e-4,0.254751 -0.0039,0.380826 h -0.622277 z"
     id="path3026-2"
     inkscape:connector-curvature="0" /><path
     style="fill:#00ff00;fill-rule:evenodd;stroke:#000000;stroke-width:0.067773;stroke-opacity:1"
     d="m 15.863105,33.477893 c 0.0133,-0.11166 0.02812,-0.223484 0.03926,-0.336607 0.06605,-0.670662 0.08701,-1.321703 0.06805,-1.936078 -0.02197,-0.719244 -0.09965,-1.389192 -0.204142,-1.986211 -0.104487,-0.597019 -0.234804,-1.119919 -0.35594,-1.554114 -0.121136,-0.434196 -0.230932,-0.779909 -0.29836,-1.021754 -0.06743,-0.241845 -0.09289,-0.380302 -0.04973,-0.398674 0.04316,-0.01837 0.150422,0.08507 0.298361,0.300796 0.147939,0.21573 0.337672,0.544452 0.531292,0.974008 0.193618,0.429556 0.389285,0.961143 0.549612,1.577987 0.160327,0.616845 0.283458,1.31861 0.332385,2.076927 0.04153,0.64642 0.03232,1.332651 -0.03664,2.036344 -0.0088,0.08993 -0.01824,0.178424 -0.02879,0.267376 z"
     id="path3028-3"
     inkscape:connector-curvature="0" /><path
     style="fill:#00ff00;fill-rule:evenodd;stroke:#000000;stroke-width:0.0709618;stroke-opacity:1"
     d="m 18.83355,27.838351 c -0.05247,0 -0.101705,0.147422 -0.149722,0.408766 -0.04802,0.261345 -0.09583,0.637683 -0.142593,1.105092 -0.04676,0.46741 -0.09121,1.024782 -0.125956,1.646945 -0.03475,0.622164 -0.05879,1.309492 -0.04515,2.034321 4.26e-4,0.02408 0.0018,0.04729 0.0024,0.0713 0.0025,0.125078 0.0069,0.249879 0.01188,0.373118 h 0.760494 c -0.004,-0.128844 -0.0089,-0.258368 -0.01188,-0.389753 -4.96e-4,-0.02339 -0.0019,-0.04545 -0.0024,-0.06892 -0.01367,-0.706653 -0.0129,-1.384763 -0.01664,-2.003426 -0.0037,-0.618663 -0.01124,-1.177922 -0.03327,-1.649322 -0.02203,-0.471398 -0.05687,-0.85309 -0.09981,-1.116975 -0.04294,-0.263884 -0.09487,-0.411142 -0.147347,-0.411142 z"
     id="path989-7"
     inkscape:connector-curvature="0" /><path
     style="fill:#00ff00;fill-rule:evenodd;stroke:#000000;stroke-width:0.0709618;stroke-opacity:1"
     d="m 19.531323,28.373083 c -0.04663,0.01445 -0.043,0.1726 -0.01109,0.445729 0.03192,0.273129 0.09239,0.661846 0.155229,1.14204 0.06284,0.480193 0.126376,1.052987 0.177404,1.691993 0.04496,0.562992 0.07884,1.179209 0.104225,1.825048 h 0.709617 c -0.02919,-0.669772 -0.08409,-1.311582 -0.164099,-1.896009 -0.08947,-0.653537 -0.20836,-1.236865 -0.337068,-1.718605 -0.128707,-0.481739 -0.266732,-0.862097 -0.381419,-1.117647 -0.114687,-0.255549 -0.206169,-0.386998 -0.252801,-0.372549 z"
     id="path991-5"
     inkscape:connector-curvature="0" /><path
     id="path993-9"
     d="m 18.83355,27.838351 c -0.05247,0 -0.101705,0.147422 -0.149722,0.408766 -0.04802,0.261345 -0.09583,0.637683 -0.142593,1.105092 -0.04676,0.46741 -0.09121,1.024782 -0.125956,1.646945 -0.03475,0.622164 -0.05879,1.309492 -0.04515,2.034321 4.26e-4,0.02408 0.0018,0.04729 0.0024,0.0713 0.0025,0.125078 0.0069,0.249879 0.01188,0.373118 h 0.760494 c -0.004,-0.128844 -0.0089,-0.258368 -0.01188,-0.389753 -4.96e-4,-0.02339 -0.0019,-0.04545 -0.0024,-0.06892 -0.01367,-0.706653 -0.0129,-1.384763 -0.01664,-2.003426 -0.0037,-0.618663 -0.01124,-1.177922 -0.03327,-1.649322 -0.02203,-0.471398 -0.05687,-0.85309 -0.09981,-1.116975 -0.04294,-0.263884 -0.09487,-0.411142 -0.147347,-0.411142 z"
     style="fill:#00ff00;fill-rule:evenodd;stroke:#000000;stroke-width:0.0709618;stroke-opacity:1"
     inkscape:connector-curvature="0" /><path
     id="path995-2"
     d="m 19.531323,28.373083 c -0.04663,0.01445 -0.043,0.1726 -0.01109,0.445729 0.03192,0.273129 0.09239,0.661846 0.155229,1.14204 0.06284,0.480193 0.126376,1.052987 0.177404,1.691993 0.04496,0.562992 0.07884,1.179209 0.104225,1.825048 h 0.709617 c -0.02919,-0.669772 -0.08409,-1.311582 -0.164099,-1.896009 -0.08947,-0.653537 -0.20836,-1.236865 -0.337068,-1.718605 -0.128707,-0.481739 -0.266732,-0.862097 -0.381419,-1.117647 -0.114687,-0.255549 -0.206169,-0.386998 -0.252801,-0.372549 z"
     style="fill:#00ff00;fill-rule:evenodd;stroke:#000000;stroke-width:0.0709618;stroke-opacity:1"
     inkscape:connector-curvature="0" /><path
     style="fill:#00ff00;fill-rule:evenodd;stroke:#000000;stroke-width:0.0709618;stroke-opacity:1"
     d="m 19.919521,27.686328 c -0.05389,0 -0.104446,0.151395 -0.153758,0.419785 -0.04931,0.26839 -0.09841,0.654872 -0.146437,1.134882 -0.04802,0.48001 -0.09367,1.052407 -0.129351,1.691342 -0.03568,0.638935 -0.06038,1.344791 -0.04637,2.08916 4.26e-4,0.02473 0.0019,0.04856 0.0024,0.07322 0.0026,0.128451 0.0071,0.256614 0.0122,0.383176 h 0.780989 c -0.0041,-0.132317 -0.0091,-0.265332 -0.0122,-0.400259 -4.96e-4,-0.02402 -0.002,-0.04667 -0.0024,-0.07078 -0.01404,-0.725702 -0.01325,-1.422092 -0.01709,-2.057432 -0.0038,-0.63534 -0.01154,-1.209675 -0.03417,-1.693783 -0.02262,-0.484106 -0.05841,-0.876087 -0.102505,-1.147085 -0.0441,-0.270997 -0.09743,-0.422225 -0.151318,-0.422225 z"
     id="path997-2"
     inkscape:connector-curvature="0" /><path
     style="fill:#00ff00;fill-rule:evenodd;stroke:#000000;stroke-width:0.0709618;stroke-opacity:1"
     d="m 20.636104,28.235473 c -0.04789,0.01484 -0.04416,0.177252 -0.01139,0.457745 0.03277,0.280492 0.09488,0.679688 0.159413,1.172826 0.06453,0.493137 0.129783,1.081371 0.182187,1.737604 0.04617,0.578166 0.08097,1.210997 0.107034,1.874245 h 0.728746 c -0.02998,-0.687826 -0.08636,-1.346936 -0.168523,-1.94712 C 21.541691,30.859619 21.419594,30.260566 21.287417,29.76584 21.15524,29.271115 21.013494,28.880503 20.895715,28.618065 20.777937,28.355627 20.683989,28.220634 20.6361,28.235473 Z"
     id="path999-8"
     inkscape:connector-curvature="0" /><path
     id="path1001-9"
     d="m 18.730745,28.959036 c -0.04128,0.01279 -0.03807,0.152789 -0.0098,0.394567 0.02825,0.241778 0.08179,0.585876 0.137411,1.010952 0.05562,0.425073 0.11187,0.932119 0.157041,1.497778 0.0398,0.498368 0.06979,1.043854 0.09226,1.61556 h 0.628168 c -0.02584,-0.592891 -0.07444,-1.16103 -0.145263,-1.678376 -0.0792,-0.578521 -0.184443,-1.094892 -0.298377,-1.521335 -0.113934,-0.426443 -0.236116,-0.763142 -0.337639,-0.989358 -0.101522,-0.226217 -0.182504,-0.342578 -0.223783,-0.329788 z"
     style="fill:#00ff00;fill-rule:evenodd;stroke:#000000;stroke-width:0.0709618;stroke-opacity:1"
     inkscape:connector-curvature="0" /><path
     style="fill:#00ff00;fill-rule:evenodd;stroke:#000000;stroke-width:0.0709618;stroke-opacity:1"
     d="m 21.831601,28.313204 c 0.03992,0.01344 0.02604,0.175627 -0.02552,0.457383 -0.05156,0.281757 -0.140116,0.684475 -0.243414,1.181734 -0.103297,0.497259 -0.220906,1.087808 -0.310156,1.747081 -0.07458,0.550932 -0.129135,1.150158 -0.13741,1.778491 h -0.622276 c 0.01713,-0.66715 0.09301,-1.29741 0.198265,-1.868788 0.125146,-0.679355 0.289043,-1.277755 0.44953,-1.770639 0.160486,-0.492883 0.317186,-0.878977 0.439714,-1.14051 0.12253,-0.261531 0.211343,-0.398191 0.251266,-0.384752 z"
     id="path1003-7"
     inkscape:connector-curvature="0" /><path
     id="path1005-3"
     d="m 23.795933,33.477893 c 0.189491,-0.584626 0.385336,-1.141435 0.565476,-1.663165 0.194112,-0.562199 0.369492,-1.0866 0.512255,-1.56781 0.08327,-0.28117 0.156089,-0.54669 0.215102,-0.793885 0.05901,-0.247194 0.103673,-0.475817 0.137489,-0.685225 0.0331,-0.206893 0.05465,-0.394863 0.06874,-0.558823 0.01409,-0.163961 0.02009,-0.303408 0.02439,-0.419118 0.0043,-0.11571 0.0084,-0.207566 0.01552,-0.270541 0.0071,-0.06298 0.0182,-0.09762 0.0377,-0.102008 0.0195,-0.0044 0.04691,0.0221 0.07761,0.07983 0.0307,0.05773 0.06542,0.147636 0.09757,0.266106 0.03215,0.118471 0.0604,0.265852 0.07983,0.441293 0.01943,0.175442 0.02799,0.377415 0.02218,0.600958 -0.0055,0.225925 -0.02412,0.474657 -0.05987,0.740663 -0.03575,0.266004 -0.08749,0.550833 -0.153012,0.847105 -0.111721,0.50645 -0.261268,1.054125 -0.436857,1.629902 -0.142395,0.466929 -0.303398,0.95516 -0.463469,1.454715 z"
     style="fill:#00ff00;fill-rule:evenodd;stroke:#000000;stroke-width:0.0709618;stroke-opacity:1"
     inkscape:connector-curvature="0" /><path
     style="fill:#00ff00;fill-rule:evenodd;stroke:#000000;stroke-width:0.0709618;stroke-opacity:1"
     d="m 22.737597,33.477893 c 0.189491,-0.584626 0.385337,-1.141435 0.565476,-1.663165 0.194113,-0.562199 0.369492,-1.0866 0.512255,-1.56781 0.08327,-0.28117 0.15609,-0.54669 0.215103,-0.793885 0.05901,-0.247194 0.103672,-0.475817 0.137488,-0.685225 0.0331,-0.206893 0.05465,-0.394863 0.06874,-0.558823 0.01409,-0.163961 0.02009,-0.303408 0.02439,-0.419118 0.0043,-0.11571 0.0084,-0.207566 0.01552,-0.270541 0.0071,-0.06298 0.0182,-0.09762 0.0377,-0.102008 0.0195,-0.0044 0.04691,0.0221 0.07761,0.07983 0.0307,0.05773 0.06542,0.147636 0.09757,0.266106 0.03215,0.118471 0.0604,0.265852 0.07983,0.441293 0.01943,0.175442 0.02799,0.377415 0.02217,0.600958 -0.0055,0.225925 -0.02412,0.474657 -0.05987,0.740663 -0.03575,0.266004 -0.08749,0.550833 -0.153011,0.847105 -0.111721,0.50645 -0.261269,1.054125 -0.436858,1.629902 -0.142395,0.466929 -0.303397,0.95516 -0.463469,1.454715 z"
     id="path1007-6"
     inkscape:connector-curvature="0" /><path
     id="path1009-1"
     d="m 21.626746,33.477893 c 0.0019,-0.14335 0.0026,-0.286783 0,-0.432693 -0.002,-0.102429 -0.0069,-0.206193 -0.01139,-0.309717 -0.02744,-0.635773 -0.103,-1.246735 -0.232287,-1.805926 C 21.253784,30.370367 21.07192,29.86254 20.850176,29.419686 20.647733,29.008617 20.41287,28.653613 20.176085,28.360727 19.9393,28.06784 19.699721,27.837663 19.488331,27.657032 c -0.477852,-0.318768 -0.75155,-0.537362 -0.726469,-0.59894 0.02653,-0.0608 0.353504,0.04349 0.920042,0.286944 0.260063,0.151983 0.557256,0.370012 0.856277,0.664982 0.299021,0.294968 0.59823,0.668954 0.858555,1.115892 0.274006,0.476308 0.502982,1.02861 0.66498,1.635124 0.161999,0.606516 0.258045,1.266181 0.284667,1.944842 0.0043,0.110508 0.006,0.221309 0.0068,0.330213 0.0014,0.14928 -8.05e-4,0.295542 -0.0046,0.441803 h -0.721846 z"
     style="fill:#00ff00;fill-rule:evenodd;stroke:#000000;stroke-width:0.0709618;stroke-opacity:1"
     inkscape:connector-curvature="0" /><path
     id="path1011-2"
     d="m 23.42626,33.477893 c 0.194599,-0.600386 0.395725,-1.172205 0.58072,-1.707999 0.199344,-0.577354 0.379452,-1.115892 0.526063,-1.610075 0.08551,-0.288748 0.160298,-0.561426 0.220902,-0.815284 0.06061,-0.253859 0.106466,-0.488643 0.141194,-0.703697 0.034,-0.212471 0.05612,-0.405507 0.0706,-0.573886 0.01447,-0.168381 0.02063,-0.311587 0.02505,-0.430417 0.0044,-0.118829 0.0087,-0.213162 0.01594,-0.277835 0.0073,-0.06467 0.01869,-0.100252 0.03871,-0.104756 0.02002,-0.0045 0.04818,0.0227 0.07971,0.08198 0.03153,0.05928 0.06719,0.151616 0.100203,0.27328 0.03301,0.121664 0.06203,0.273018 0.08198,0.453188 0.01996,0.180172 0.02874,0.387589 0.02277,0.617157 -0.0057,0.232017 -0.02478,0.487453 -0.06149,0.76063 -0.03671,0.273175 -0.08985,0.565683 -0.157135,0.869941 -0.114734,0.520102 -0.268313,1.082541 -0.448635,1.673839 -0.146233,0.479516 -0.311576,0.980909 -0.475962,1.49393 z"
     style="fill:#00ff00;fill-rule:evenodd;stroke:#000000;stroke-width:0.0709618;stroke-opacity:1"
     inkscape:connector-curvature="0" /><path
     style="fill:#00ff00;fill-rule:evenodd;stroke:#000000;stroke-width:0.0709618;stroke-opacity:1"
     d="m 23.052083,33.477893 c 0.0016,-0.123565 0.0022,-0.247203 0,-0.372974 -0.0017,-0.08829 -0.006,-0.177734 -0.0098,-0.266969 -0.02366,-0.548023 -0.08879,-1.074659 -0.200231,-1.55667 -0.111445,-0.48201 -0.268207,-0.919747 -0.459347,-1.301478 -0.1745,-0.354332 -0.376948,-0.660339 -0.581051,-0.9128 -0.204114,-0.252462 -0.410627,-0.450871 -0.59284,-0.606572 -0.411899,-0.27477 -0.647821,-0.463193 -0.626201,-0.516272 0.02287,-0.05241 0.304713,0.03749 0.793057,0.247339 0.224168,0.131007 0.480342,0.318943 0.738092,0.573201 0.257751,0.254257 0.515663,0.576625 0.740057,0.961877 0.236188,0.410567 0.43356,0.886641 0.573199,1.409444 0.13964,0.522803 0.22243,1.091421 0.245377,1.676412 0.0037,0.09526 0.0052,0.190764 0.0059,0.284636 0.0012,0.128676 -6.97e-4,0.254751 -0.0039,0.380826 h -0.622277 z"
     id="path1013-9"
     inkscape:connector-curvature="0" /><path
     style="fill:#00ff00;fill-rule:evenodd;stroke:#000000;stroke-width:0.067773;stroke-opacity:1"
     d="m 21.995176,33.477893 c 0.0133,-0.11166 0.02812,-0.223484 0.03926,-0.336607 0.06605,-0.670662 0.08702,-1.321703 0.06805,-1.936078 -0.02197,-0.719244 -0.09965,-1.389192 -0.204141,-1.986211 -0.104487,-0.597019 -0.234804,-1.119919 -0.355941,-1.554113 -0.121135,-0.434196 -0.230931,-0.779909 -0.29836,-1.021755 -0.06743,-0.241845 -0.09289,-0.380302 -0.04973,-0.398674 0.04316,-0.01837 0.150423,0.08507 0.298361,0.300796 0.14794,0.21573 0.337673,0.544452 0.531292,0.974008 0.193619,0.429557 0.389285,0.961143 0.549612,1.577987 0.160328,0.616846 0.283458,1.31861 0.332386,2.076928 0.04153,0.646419 0.03232,1.33265 -0.03664,2.036344 -0.0088,0.08993 -0.01824,0.178423 -0.02879,0.267375 z"
     id="path1015-3"
     inkscape:connector-curvature="0" /><path
     style="fill:#00ff00;fill-rule:evenodd;stroke:#000000;stroke-width:0.0709618;stroke-opacity:1"
     d="m 23.443243,27.838351 c -0.05247,0 -0.101705,0.147421 -0.149722,0.408766 -0.04802,0.261345 -0.09583,0.637682 -0.142593,1.105092 -0.04676,0.46741 -0.09121,1.024782 -0.125956,1.646945 -0.03475,0.622164 -0.05879,1.309492 -0.04515,2.034321 4.26e-4,0.02408 0.0018,0.04729 0.0024,0.0713 0.0025,0.125078 0.0069,0.249879 0.01188,0.373118 h 0.760494 c -0.004,-0.128844 -0.0089,-0.258368 -0.01188,-0.389753 -4.97e-4,-0.02339 -0.0019,-0.04545 -0.0024,-0.06892 -0.01367,-0.706653 -0.0129,-1.384763 -0.01664,-2.003426 -0.0037,-0.618663 -0.01124,-1.177922 -0.03327,-1.649322 -0.02203,-0.471398 -0.05687,-0.85309 -0.09981,-1.116975 -0.04294,-0.263884 -0.09487,-0.411142 -0.147347,-0.411142 z"
     id="path4076-1"
     inkscape:connector-curvature="0" /><path
     style="fill:#00ff00;fill-rule:evenodd;stroke:#000000;stroke-width:0.0709618;stroke-opacity:1"
     d="m 24.141016,28.373084 c -0.04663,0.01445 -0.043,0.1726 -0.01109,0.445729 0.03192,0.273129 0.09239,0.661846 0.155228,1.14204 0.06284,0.480193 0.126377,1.052986 0.177405,1.691993 0.04496,0.562991 0.07884,1.179209 0.104225,1.825047 h 0.709617 c -0.02919,-0.669771 -0.08409,-1.311581 -0.164099,-1.896008 -0.08947,-0.653537 -0.20836,-1.236865 -0.337068,-1.718605 -0.128707,-0.481739 -0.266732,-0.862097 -0.381419,-1.117647 -0.114687,-0.255549 -0.206169,-0.386998 -0.252801,-0.372549 z"
     id="path4068-9"
     inkscape:connector-curvature="0" /><path
     id="path2902-4"
     d="m 23.443243,27.838351 c -0.05247,0 -0.101705,0.147421 -0.149722,0.408766 -0.04802,0.261345 -0.09583,0.637682 -0.142593,1.105092 -0.04676,0.46741 -0.09121,1.024782 -0.125956,1.646945 -0.03475,0.622164 -0.05879,1.309492 -0.04515,2.034321 4.26e-4,0.02408 0.0018,0.04729 0.0024,0.0713 0.0025,0.125078 0.0069,0.249879 0.01188,0.373118 h 0.760494 c -0.004,-0.128844 -0.0089,-0.258368 -0.01188,-0.389753 -4.97e-4,-0.02339 -0.0019,-0.04545 -0.0024,-0.06892 -0.01367,-0.706653 -0.0129,-1.384763 -0.01664,-2.003426 -0.0037,-0.618663 -0.01124,-1.177922 -0.03327,-1.649322 -0.02203,-0.471398 -0.05687,-0.85309 -0.09981,-1.116975 -0.04294,-0.263884 -0.09487,-0.411142 -0.147347,-0.411142 z"
     style="fill:#00ff00;fill-rule:evenodd;stroke:#000000;stroke-width:0.0709618;stroke-opacity:1"
     inkscape:connector-curvature="0" /><path
     id="path2904-7"
     d="m 24.141016,28.373084 c -0.04663,0.01445 -0.043,0.1726 -0.01109,0.445729 0.03192,0.273129 0.09239,0.661846 0.155228,1.14204 0.06284,0.480193 0.126377,1.052986 0.177405,1.691993 0.04496,0.562991 0.07884,1.179209 0.104225,1.825047 h 0.709617 c -0.02919,-0.669771 -0.08409,-1.311581 -0.164099,-1.896008 -0.08947,-0.653537 -0.20836,-1.236865 -0.337068,-1.718605 -0.128707,-0.481739 -0.266732,-0.862097 -0.381419,-1.117647 -0.114687,-0.255549 -0.206169,-0.386998 -0.252801,-0.372549 z"
     style="fill:#00ff00;fill-rule:evenodd;stroke:#000000;stroke-width:0.0709618;stroke-opacity:1"
     inkscape:connector-curvature="0" /><path
     style="fill:#00ff00;fill-rule:evenodd;stroke:#000000;stroke-width:0.0709618;stroke-opacity:1"
     d="m 24.529214,27.686329 c -0.05389,0 -0.104447,0.151395 -0.153759,0.419785 -0.04931,0.26839 -0.09841,0.654872 -0.146436,1.134882 -0.04802,0.48001 -0.09367,1.052407 -0.129351,1.691342 -0.03568,0.638935 -0.06038,1.344792 -0.04637,2.08916 4.26e-4,0.02473 0.0019,0.04856 0.0024,0.07322 0.0026,0.12845 0.0071,0.256614 0.0122,0.383175 h 0.780989 c -0.0041,-0.132317 -0.0091,-0.265332 -0.0122,-0.400259 -4.96e-4,-0.02402 -0.002,-0.04667 -0.0024,-0.07078 -0.01404,-0.725702 -0.01325,-1.422092 -0.01709,-2.057432 -0.0038,-0.63534 -0.01154,-1.209675 -0.03417,-1.693783 -0.02262,-0.484106 -0.05841,-0.876087 -0.102506,-1.147085 -0.0441,-0.270997 -0.09743,-0.422225 -0.151318,-0.422225 z"
     id="path2922-8"
     inkscape:connector-curvature="0" /><path
     style="fill:#00ff00;fill-rule:evenodd;stroke:#000000;stroke-width:0.0709618;stroke-opacity:1"
     d="m 25.245797,28.235474 c -0.04789,0.01484 -0.04416,0.177252 -0.01139,0.457744 0.03277,0.280492 0.09488,0.679688 0.159413,1.172826 0.06453,0.493137 0.129783,1.081371 0.182186,1.737604 0.04617,0.578167 0.08097,1.210997 0.107035,1.874245 h 0.728746 c -0.02998,-0.687826 -0.08636,-1.346936 -0.168523,-1.947119 -0.09188,-0.671154 -0.213977,-1.270207 -0.346154,-1.764933 -0.132177,-0.494725 -0.273923,-0.885337 -0.391702,-1.147775 -0.117778,-0.262438 -0.211726,-0.397431 -0.259615,-0.382592 z"
     id="path2924-4"
     inkscape:connector-curvature="0" /><path
     id="path2944-5"
     d="m 23.340438,28.959036 c -0.04128,0.01279 -0.03807,0.152789 -0.0098,0.394567 0.02825,0.241778 0.08179,0.585876 0.137411,1.010952 0.05562,0.425073 0.11187,0.932119 0.157041,1.497778 0.0398,0.498368 0.06979,1.043854 0.09226,1.61556 h 0.62815 c -0.02584,-0.592892 -0.07444,-1.161031 -0.145263,-1.678377 -0.0792,-0.57852 -0.184444,-1.094891 -0.298378,-1.521334 -0.113933,-0.426443 -0.236116,-0.763142 -0.337638,-0.989359 -0.101522,-0.226216 -0.182504,-0.342577 -0.223783,-0.329787 z"
     style="fill:#00ff00;fill-rule:evenodd;stroke:#000000;stroke-width:0.0709618;stroke-opacity:1"
     inkscape:connector-curvature="0" /><path
     style="fill:#00ff00;fill-rule:evenodd;stroke:#000000;stroke-width:0.0709618;stroke-opacity:1"
     d="m 26.441294,28.313205 c 0.03992,0.01344 0.02604,0.175626 -0.02552,0.457383 -0.05156,0.281756 -0.140116,0.684475 -0.243414,1.181734 -0.103297,0.497259 -0.220907,1.087808 -0.310156,1.747081 -0.07458,0.550931 -0.129135,1.150157 -0.13741,1.77849 h -0.622276 c 0.01713,-0.667149 0.09301,-1.29741 0.198265,-1.868788 0.125145,-0.679355 0.289043,-1.277755 0.44953,-1.770639 0.160486,-0.492883 0.317185,-0.878977 0.439714,-1.14051 0.12253,-0.261531 0.211343,-0.398191 0.251266,-0.384751 z"
     id="path2960-0"
     inkscape:connector-curvature="0" /><path
     id="path2970-3"
     d="m 28.405626,33.477893 c 0.189491,-0.584626 0.385336,-1.141435 0.565476,-1.663165 0.194112,-0.562199 0.369492,-1.0866 0.512255,-1.56781 0.08327,-0.28117 0.156089,-0.546689 0.215102,-0.793885 0.05901,-0.247194 0.103673,-0.475817 0.137489,-0.685224 0.0331,-0.206894 0.05465,-0.394863 0.06874,-0.558823 0.01409,-0.163961 0.02009,-0.303408 0.02439,-0.419118 0.0043,-0.11571 0.0084,-0.207566 0.01552,-0.270541 0.0071,-0.06298 0.0182,-0.09762 0.0377,-0.102008 0.0195,-0.0044 0.04691,0.0221 0.07762,0.07983 0.0307,0.05773 0.06542,0.147636 0.09757,0.266106 0.03215,0.118471 0.0604,0.265852 0.07983,0.441293 0.01943,0.175442 0.02799,0.377415 0.02218,0.600958 -0.0055,0.225925 -0.02413,0.474657 -0.05987,0.740663 -0.03575,0.266004 -0.08749,0.550833 -0.153012,0.847105 -0.111721,0.50645 -0.261268,1.054125 -0.436857,1.629902 -0.142395,0.466929 -0.303398,0.95516 -0.463469,1.454715 z"
     style="fill:#00ff00;fill-rule:evenodd;stroke:#000000;stroke-width:0.0709618;stroke-opacity:1"
     inkscape:connector-curvature="0" /><path
     style="fill:#00ff00;fill-rule:evenodd;stroke:#000000;stroke-width:0.0709618;stroke-opacity:1"
     d="m 27.34729,33.477893 c 0.189491,-0.584626 0.385337,-1.141435 0.565476,-1.663165 0.194113,-0.562199 0.369492,-1.0866 0.512255,-1.56781 0.08327,-0.28117 0.15609,-0.546689 0.215103,-0.793885 0.05901,-0.247194 0.103672,-0.475817 0.137488,-0.685224 0.0331,-0.206894 0.05465,-0.394863 0.06874,-0.558823 0.01409,-0.163961 0.02009,-0.303408 0.02439,-0.419118 0.0043,-0.11571 0.0084,-0.207566 0.01552,-0.270541 0.0071,-0.06298 0.0182,-0.09762 0.0377,-0.102008 0.0195,-0.0044 0.04691,0.0221 0.07761,0.07983 0.0307,0.05773 0.06542,0.147636 0.09757,0.266106 0.03215,0.118471 0.0604,0.265852 0.07983,0.441293 0.01943,0.175442 0.02799,0.377415 0.02218,0.600958 -0.0055,0.225925 -0.02412,0.474657 -0.05987,0.740663 -0.03575,0.266004 -0.08749,0.550833 -0.153011,0.847105 -0.111721,0.50645 -0.261269,1.054125 -0.436858,1.629902 -0.142395,0.466929 -0.303397,0.95516 -0.463469,1.454715 z"
     id="path2990-6"
     inkscape:connector-curvature="0" /><path
     id="path3006-1"
     d="m 26.236439,33.477893 c 0.0019,-0.14335 0.0026,-0.286783 0,-0.432693 -0.002,-0.102428 -0.0069,-0.206193 -0.01139,-0.309717 -0.02744,-0.635772 -0.103,-1.246734 -0.232287,-1.805925 -0.129287,-0.55919 -0.311151,-1.067017 -0.532896,-1.509871 -0.202442,-0.411069 -0.437306,-0.766073 -0.67409,-1.058959 -0.236785,-0.292887 -0.476364,-0.523064 -0.687754,-0.703696 -0.477852,-0.318767 -0.75155,-0.537361 -0.726469,-0.598939 0.02653,-0.0608 0.353504,0.04349 0.920042,0.286944 0.260063,0.151983 0.557255,0.370012 0.856277,0.664982 0.299021,0.294968 0.59823,0.668954 0.858554,1.115892 0.274007,0.476308 0.502983,1.02861 0.664981,1.635124 0.161999,0.606516 0.258045,1.266181 0.284667,1.944842 0.0043,0.110508 0.006,0.221309 0.0068,0.330213 0.0014,0.14928 -8.05e-4,0.295542 -0.0046,0.441803 H 26.23643 Z"
     style="fill:#00ff00;fill-rule:evenodd;stroke:#000000;stroke-width:0.0709618;stroke-opacity:1"
     inkscape:connector-curvature="0" /><path
     id="path3010-06"
     d="m 28.035953,33.477893 c 0.194599,-0.600386 0.395725,-1.172205 0.58072,-1.707999 0.199344,-0.577354 0.379452,-1.115891 0.526063,-1.610074 0.08551,-0.288749 0.160298,-0.561426 0.220902,-0.815285 0.0606,-0.253858 0.106466,-0.488643 0.141194,-0.703696 0.034,-0.212471 0.05612,-0.405507 0.0706,-0.573887 0.01447,-0.168381 0.02063,-0.311587 0.02505,-0.430416 0.0044,-0.118829 0.0087,-0.213162 0.01594,-0.277835 0.0073,-0.06467 0.01869,-0.100253 0.03871,-0.104757 0.02002,-0.0045 0.04818,0.0227 0.07971,0.08198 0.03153,0.05928 0.06719,0.151616 0.100203,0.27328 0.03301,0.121664 0.06203,0.273018 0.08198,0.453189 0.01996,0.180171 0.02874,0.387588 0.02277,0.617157 -0.0057,0.232016 -0.02478,0.487453 -0.06149,0.760629 -0.03671,0.273176 -0.08985,0.565683 -0.157135,0.869941 -0.114734,0.520102 -0.268313,1.082541 -0.448635,1.673839 -0.146233,0.479516 -0.311576,0.980909 -0.475962,1.49393 z"
     style="fill:#00ff00;fill-rule:evenodd;stroke:#000000;stroke-width:0.0709618;stroke-opacity:1"
     inkscape:connector-curvature="0" /><path
     style="fill:#00ff00;fill-rule:evenodd;stroke:#000000;stroke-width:0.0709618;stroke-opacity:1"
     d="m 27.661776,33.477893 c 0.0016,-0.123565 0.0022,-0.247202 0,-0.372973 -0.0017,-0.08829 -0.006,-0.177734 -0.0098,-0.266969 -0.02366,-0.548023 -0.08879,-1.074659 -0.200231,-1.55667 -0.111445,-0.48201 -0.268207,-0.919747 -0.459347,-1.301478 -0.1745,-0.354332 -0.376948,-0.660339 -0.581051,-0.9128 -0.204104,-0.252462 -0.410617,-0.450871 -0.59283,-0.606572 -0.411899,-0.27477 -0.647821,-0.463193 -0.626201,-0.516272 0.02287,-0.05241 0.304713,0.03749 0.793056,0.247339 0.224169,0.131007 0.480343,0.318943 0.738093,0.573201 0.257751,0.254257 0.515663,0.576625 0.740057,0.961876 0.236188,0.410567 0.43356,0.886641 0.573199,1.409444 0.13964,0.522803 0.22243,1.091421 0.245377,1.676412 0.0037,0.09526 0.0051,0.190764 0.0059,0.284637 0.0012,0.128676 -6.97e-4,0.254751 -0.0039,0.380825 h -0.622277 z"
     id="path3026-3"
     inkscape:connector-curvature="0" /><path
     style="fill:#00ff00;fill-rule:evenodd;stroke:#000000;stroke-width:0.067773;stroke-opacity:1"
     d="m 26.604869,33.477893 c 0.0133,-0.111659 0.02812,-0.223483 0.03926,-0.336606 0.06605,-0.670662 0.08702,-1.321703 0.06805,-1.936078 -0.02197,-0.719244 -0.09965,-1.389192 -0.204141,-1.986211 -0.104487,-0.597019 -0.234804,-1.119919 -0.355941,-1.554114 -0.121135,-0.434196 -0.230931,-0.779909 -0.29836,-1.021754 -0.06743,-0.241845 -0.09289,-0.380302 -0.04973,-0.398674 0.04316,-0.01837 0.150423,0.08507 0.298361,0.300796 0.147939,0.21573 0.337673,0.544452 0.531292,0.974008 0.193619,0.429556 0.389285,0.961143 0.549612,1.577987 0.160328,0.616845 0.283458,1.31861 0.332386,2.076927 0.04153,0.64642 0.03232,1.33265 -0.03664,2.036344 -0.0088,0.08993 -0.01824,0.178424 -0.02879,0.267375 z"
     id="path3028-2"
     inkscape:connector-curvature="0" /><path
     style="fill:#00ff00;fill-rule:evenodd;stroke:#000000;stroke-width:0.0709618;stroke-opacity:1"
     d="m 29.575314,27.838351 c -0.05247,0 -0.101704,0.147421 -0.149722,0.408766 -0.04802,0.261345 -0.09583,0.637682 -0.142593,1.105092 -0.04676,0.46741 -0.09121,1.024782 -0.125956,1.646945 -0.03475,0.622164 -0.05879,1.309492 -0.04515,2.034321 4.27e-4,0.02408 0.0018,0.04729 0.0024,0.0713 0.0025,0.125078 0.0069,0.249879 0.01188,0.373118 h 0.760494 c -0.004,-0.128844 -0.0089,-0.258368 -0.01188,-0.389753 -4.96e-4,-0.02339 -0.0019,-0.04545 -0.0024,-0.06892 -0.01367,-0.706653 -0.0129,-1.384763 -0.01664,-2.003426 -0.0037,-0.618663 -0.01124,-1.177922 -0.03327,-1.649322 -0.02203,-0.471398 -0.05687,-0.85309 -0.09982,-1.116975 -0.04294,-0.263884 -0.09487,-0.411142 -0.147346,-0.411142 z"
     id="path989-0"
     inkscape:connector-curvature="0" /><path
     style="fill:#00ff00;fill-rule:evenodd;stroke:#000000;stroke-width:0.0709618;stroke-opacity:1"
     d="m 30.273087,28.373084 c -0.04663,0.01445 -0.043,0.1726 -0.01109,0.445729 0.03192,0.273129 0.09239,0.661846 0.155229,1.14204 0.06284,0.480193 0.126376,1.052986 0.177404,1.691993 0.04496,0.562991 0.07884,1.179209 0.104225,1.825047 h 0.709618 c -0.02919,-0.669771 -0.08409,-1.311581 -0.164099,-1.896008 -0.08947,-0.653537 -0.208361,-1.236865 -0.337068,-1.718605 -0.128707,-0.481739 -0.266733,-0.862097 -0.38142,-1.117647 -0.114687,-0.255549 -0.206168,-0.386998 -0.252801,-0.372549 z"
     id="path991-6"
     inkscape:connector-curvature="0" /><path
     id="path993-1"
     d="m 29.575314,27.838351 c -0.05247,0 -0.101704,0.147421 -0.149722,0.408766 -0.04802,0.261345 -0.09583,0.637682 -0.142593,1.105092 -0.04676,0.46741 -0.09121,1.024782 -0.125956,1.646945 -0.03475,0.622164 -0.05879,1.309492 -0.04515,2.034321 4.27e-4,0.02408 0.0018,0.04729 0.0024,0.0713 0.0025,0.125078 0.0069,0.249879 0.01188,0.373118 h 0.760494 c -0.004,-0.128844 -0.0089,-0.258368 -0.01188,-0.389753 -4.96e-4,-0.02339 -0.0019,-0.04545 -0.0024,-0.06892 -0.01367,-0.706653 -0.0129,-1.384763 -0.01664,-2.003426 -0.0037,-0.618663 -0.01124,-1.177922 -0.03327,-1.649322 -0.02203,-0.471398 -0.05687,-0.85309 -0.09982,-1.116975 -0.04294,-0.263884 -0.09487,-0.411142 -0.147346,-0.411142 z"
     style="fill:#00ff00;fill-rule:evenodd;stroke:#000000;stroke-width:0.0709618;stroke-opacity:1"
     inkscape:connector-curvature="0" /><path
     id="path995-5"
     d="m 30.273087,28.373084 c -0.04663,0.01445 -0.043,0.1726 -0.01109,0.445729 0.03192,0.273129 0.09239,0.661846 0.155229,1.14204 0.06284,0.480193 0.126376,1.052986 0.177404,1.691993 0.04496,0.562991 0.07884,1.179209 0.104225,1.825047 h 0.709618 c -0.02919,-0.669771 -0.08409,-1.311581 -0.164099,-1.896008 -0.08947,-0.653537 -0.208361,-1.236865 -0.337068,-1.718605 -0.128707,-0.481739 -0.266733,-0.862097 -0.38142,-1.117647 -0.114687,-0.255549 -0.206168,-0.386998 -0.252801,-0.372549 z"
     style="fill:#00ff00;fill-rule:evenodd;stroke:#000000;stroke-width:0.0709618;stroke-opacity:1"
     inkscape:connector-curvature="0" /><path
     style="fill:#00ff00;fill-rule:evenodd;stroke:#000000;stroke-width:0.0709618;stroke-opacity:1"
     d="m 30.661285,27.686329 c -0.05389,0 -0.104446,0.151395 -0.153758,0.419785 -0.04931,0.26839 -0.09841,0.654872 -0.146437,1.134882 -0.04802,0.48001 -0.09367,1.052407 -0.129351,1.691342 -0.03568,0.638935 -0.06038,1.344792 -0.04637,2.08916 4.27e-4,0.02473 0.0019,0.04856 0.0024,0.07322 0.0026,0.12845 0.0071,0.256614 0.0122,0.383175 H 30.981 c -0.0041,-0.132317 -0.0091,-0.265332 -0.0122,-0.400259 -4.96e-4,-0.02402 -0.002,-0.04667 -0.0024,-0.07078 -0.01404,-0.725702 -0.01325,-1.422092 -0.01709,-2.057432 -0.0038,-0.63534 -0.01154,-1.209675 -0.03417,-1.693783 -0.02262,-0.484106 -0.05841,-0.876087 -0.102505,-1.147085 -0.0441,-0.270997 -0.09743,-0.422225 -0.151318,-0.422225 z"
     id="path997-5"
     inkscape:connector-curvature="0" /><path
     style="fill:#00ff00;fill-rule:evenodd;stroke:#000000;stroke-width:0.0709618;stroke-opacity:1"
     d="m 31.377868,28.235474 c -0.04789,0.01484 -0.04416,0.177252 -0.01139,0.457744 0.03277,0.280492 0.09488,0.679688 0.159414,1.172826 0.06453,0.493137 0.129782,1.081371 0.182186,1.737604 0.04617,0.578167 0.08097,1.210997 0.107034,1.874245 h 0.728746 c -0.02997,-0.687826 -0.08635,-1.346936 -0.168518,-1.947119 -0.09188,-0.671154 -0.213978,-1.270207 -0.346155,-1.764933 -0.132176,-0.494725 -0.273922,-0.885337 -0.391701,-1.147775 -0.117778,-0.262438 -0.211727,-0.397431 -0.259616,-0.382592 z"
     id="path999-4"
     inkscape:connector-curvature="0" /><path
     id="path1001-7"
     d="m 29.472509,28.959036 c -0.04128,0.01279 -0.03807,0.152789 -0.0098,0.394567 0.02825,0.241778 0.08179,0.585876 0.137411,1.010952 0.05562,0.425073 0.111871,0.932119 0.157041,1.497778 0.0398,0.498368 0.06979,1.043854 0.09226,1.61556 h 0.628168 c -0.02584,-0.592892 -0.07444,-1.161031 -0.145262,-1.678377 -0.0792,-0.57852 -0.184444,-1.094891 -0.298378,-1.521334 -0.113933,-0.426443 -0.236116,-0.763142 -0.337639,-0.989359 -0.101522,-0.226216 -0.182503,-0.342577 -0.223783,-0.329787 z"
     style="fill:#00ff00;fill-rule:evenodd;stroke:#000000;stroke-width:0.0709618;stroke-opacity:1"
     inkscape:connector-curvature="0" /><path
     style="fill:#00ff00;fill-rule:evenodd;stroke:#000000;stroke-width:0.0709618;stroke-opacity:1"
     d="m 32.573365,28.313205 c 0.03992,0.01344 0.02604,0.175626 -0.02552,0.457383 -0.05156,0.281756 -0.140115,0.684475 -0.243413,1.181734 -0.103298,0.497259 -0.220907,1.087808 -0.310156,1.747081 -0.07458,0.550931 -0.129136,1.150157 -0.137411,1.77849 H 31.23459 c 0.01713,-0.667149 0.09301,-1.29741 0.198265,-1.868788 0.125146,-0.679355 0.289043,-1.277755 0.44953,-1.770639 0.160487,-0.492883 0.317186,-0.878977 0.439715,-1.14051 0.122529,-0.261531 0.211342,-0.398191 0.251265,-0.384751 z"
     id="path1003-6"
     inkscape:connector-curvature="0" /><path
     id="path1009-3"
     d="m 32.36851,33.477893 c 0.0019,-0.14335 0.0026,-0.286783 0,-0.432693 -0.002,-0.102428 -0.0069,-0.206193 -0.01139,-0.309717 -0.02744,-0.635772 -0.102999,-1.246734 -0.232287,-1.805925 -0.129287,-0.55919 -0.31115,-1.067017 -0.532895,-1.509871 -0.202443,-0.411069 -0.437306,-0.766073 -0.67409,-1.058959 -0.236785,-0.292887 -0.476365,-0.523064 -0.687755,-0.703696 -0.477852,-0.318767 -0.75155,-0.537361 -0.726468,-0.598939 0.02653,-0.0608 0.353503,0.04349 0.920042,0.286944 0.260062,0.151983 0.557255,0.370012 0.856276,0.664982 0.299022,0.294968 0.59823,0.668954 0.858555,1.115892 0.274006,0.476308 0.502982,1.02861 0.664981,1.635124 0.161999,0.606516 0.258045,1.266181 0.284667,1.944842 0.0043,0.110508 0.006,0.221309 0.0068,0.330213 0.0014,0.14928 -8.05e-4,0.295542 -0.0046,0.441803 H 32.3685 Z"
     style="fill:#00ff00;fill-rule:evenodd;stroke:#000000;stroke-width:0.0709618;stroke-opacity:1"
     inkscape:connector-curvature="0" /><path
     style="fill:#00ff00;fill-rule:evenodd;stroke:#000000;stroke-width:0.067773;stroke-opacity:1"
     d="m 32.934861,33.477893 c 0.0133,-0.111659 0.02812,-0.223483 0.03926,-0.336606 0.06605,-0.670662 0.08702,-1.321703 0.06805,-1.936078 -0.02197,-0.719244 -0.09965,-1.389192 -0.204142,-1.986211 -0.104487,-0.597019 -0.234804,-1.119919 -0.35594,-1.554114 -0.121136,-0.434196 -0.230932,-0.779909 -0.29836,-1.021754 -0.06743,-0.241845 -0.09289,-0.380302 -0.04973,-0.398674 0.04316,-0.01837 0.150422,0.08507 0.29836,0.300796 0.14794,0.21573 0.337673,0.544452 0.531293,0.974008 0.193619,0.429556 0.389285,0.961143 0.549612,1.577987 0.160328,0.616845 0.283458,1.31861 0.332386,2.076927 0.04153,0.64642 0.03232,1.33265 -0.03664,2.036344 -0.0088,0.08993 -0.01824,0.178424 -0.02879,0.267375 z"
     id="path1015-5"
     inkscape:connector-curvature="0" /><ellipse
     style="fill:#aa4400;stroke:none;stroke-width:0.884298;stroke-linecap:round;stroke-linejoin:bevel"
     id="path372"
     cx="3.7423921"
     cy="37.2696"
     rx="0.96788943"
     ry="1.0757694" /><ellipse
     style="fill:#aa4400;stroke:none;stroke-width:0.884298;stroke-linecap:round;stroke-linejoin:bevel"
     id="path372-3"
     cx="8.527957"
     cy="42.430111"
     rx="0.96788943"
     ry="1.0757694" /><ellipse
     style="fill:#aa4400;stroke:none;stroke-width:0.884298;stroke-linecap:round;stroke-linejoin:bevel"
     id="path372-6"
     cx="13.268909"
     cy="38.861691"
     rx="0.96788943"
     ry="1.0757694" /><ellipse
     style="fill:#aa4400;stroke:none;stroke-width:0.884298;stroke-linecap:round;stroke-linejoin:bevel"
     id="path372-7"
     cx="14.1445"
     cy="44.373512"
     rx="0.96788943"
     ry="1.0757694" /><ellipse
     style="fill:#aa4400;stroke:none;stroke-width:0.884298;stroke-linecap:round;stroke-linejoin:bevel"
     id="path372-5"
     cx="3.7636118"
     cy="45.152611"
     rx="0.96788943"
     ry="1.0757694" /><ellipse
     style="fill:#aa4400;stroke:none;stroke-width:0.884298;stroke-linecap:round;stroke-linejoin:bevel"
     id="path372-35"
     cx="18.999218"
     cy="39.0811"
     rx="0.96788943"
     ry="1.0757694" /><ellipse
     style="fill:#aa4400;stroke:none;stroke-width:0.884298;stroke-linecap:round;stroke-linejoin:bevel"
     id="path372-62"
     cx="23.4191"
     cy="44.682713"
     rx="0.96788943"
     ry="1.0757694" /><ellipse
     style="fill:#aa4400;stroke:none;stroke-width:0.884298;stroke-linecap:round;stroke-linejoin:bevel"
     id="path372-9"
     cx="26.677134"
     cy="37.816166"
     rx="0.96788943"
     ry="1.0757694" /><ellipse
     style="fill:#aa4400;stroke:none;stroke-width:0.884298;stroke-linecap:round;stroke-linejoin:bevel"
     id="path372-1"
     cx="29.741842"
     cy="42.832226"
     rx="0.96788943"
     ry="1.0757694" /><ellipse
     style="fill:#aa4400;stroke:none;stroke-width:0.884298;stroke-linecap:round;stroke-linejoin:bevel"
     id="path372-2"
     cx="19.146414"
     cy="47.495945"
     rx="0.96788943"
     ry="1.0757694" /><ellipse
     style="fill:#aa4400;stroke:none;stroke-width:0.884298;stroke-linecap:round;stroke-linejoin:bevel"
     id="path372-70"
     cx="9.6972265"
     cy="46.505199"
     rx="0.96788943"
     ry="1.0757694" /><ellipse
     style="fill:#aa4400;stroke:none;stroke-width:0.884298;stroke-linecap:round;stroke-linejoin:bevel"
     id="path372-93"
     cx="27.749689"
     cy="47.98547"
     rx="0.96788943"
     ry="1.0757694" /><ellipse
     style="fill:#aa4400;stroke:none;stroke-width:0.884298;stroke-linecap:round;stroke-linejoin:bevel"
     id="path372-60"
     cx="2.7729099"
     cy="41.723003"
     rx="0.96788943"
     ry="1.0757694" /><ellipse
     style="fill:#aa4400;stroke:none;stroke-width:0.884298;stroke-linecap:round;stroke-linejoin:bevel"
     id="path372-5-6"
     cx="5.9575081"
     cy="48.155598"
     rx="0.96788943"
     ry="1.0757694" /><ellipse
     style="fill:#aa4400;stroke:none;stroke-width:0.884298;stroke-linecap:round;stroke-linejoin:bevel"
     id="path372-5-2"
     cx="24.403152"
     cy="40.805355"
     rx="0.96788943"
     ry="1.0757694" /></svg>
