<?xml version="1.0" encoding="UTF-8" standalone="no"?>
<!-- Uploaded to: SVG Repo, www.svgrepo.com, Generator: SVG Repo Mixer Tools -->

<svg
   width="800px"
   height="800px"
   viewBox="0 0 48 48"
   version="1.1"
   id="svg16"
   sodipodi:docname="dark-mode-svgrepo-com.svg"
   inkscape:version="1.1.2 (0a00cf5339, 2022-02-04)"
   xmlns:inkscape="http://www.inkscape.org/namespaces/inkscape"
   xmlns:sodipodi="http://sodipodi.sourceforge.net/DTD/sodipodi-0.dtd"
   xmlns="http://www.w3.org/2000/svg"
   xmlns:svg="http://www.w3.org/2000/svg"
   xmlns:rdf="http://www.w3.org/1999/02/22-rdf-syntax-ns#"
   xmlns:cc="http://creativecommons.org/ns#"
   xmlns:dc="http://purl.org/dc/elements/1.1/">
  <defs
     id="defs20" />
  <sodipodi:namedview
     id="namedview18"
     pagecolor="#ffffff"
     bordercolor="#666666"
     borderopacity="1.0"
     inkscape:pageshadow="2"
     inkscape:pageopacity="0.0"
     inkscape:pagecheckerboard="0"
     showgrid="false"
     inkscape:zoom="0.94125"
     inkscape:cx="389.90704"
     inkscape:cy="400"
     inkscape:window-width="1920"
     inkscape:window-height="1029"
     inkscape:window-x="0"
     inkscape:window-y="0"
     inkscape:window-maximized="1"
     inkscape:current-layer="Layer_2" />
  <title
     id="title2">dark-mode</title>
  <g
     id="Layer_2"
     data-name="Layer 2">
    <path
       d="M 14,24 A 10,10 0 0 0 24,34 V 14 A 10,10 0 0 0 14,24 Z"
       id="path6"
       style="fill:#72a7cf;fill-opacity:1" />
    <path
       d="M 24,2 A 22,22 0 1 0 46,24 21.9,21.9 0 0 0 24,2 Z M 6,24 A 18.1,18.1 0 0 1 24,6 v 8 a 10,10 0 0 1 0,20 v 8 A 18.1,18.1 0 0 1 6,24 Z"
       id="path8"
       style="fill:#72a7cf;fill-opacity:1" />
  </g>
  <metadata
     id="metadata837">
    <rdf:RDF>
      <cc:Work
         rdf:about="">
        <dc:title>dark-mode</dc:title>
      </cc:Work>
    </rdf:RDF>
  </metadata>
</svg>
