<?xml version="1.0" encoding="UTF-8" standalone="no"?>
<!-- Uploaded to: SVG Repo, www.svgrepo.com, Generator: SVG Repo Mixer Tools -->

<svg
   xmlns:dc="http://purl.org/dc/elements/1.1/"
   xmlns:cc="http://creativecommons.org/ns#"
   xmlns:rdf="http://www.w3.org/1999/02/22-rdf-syntax-ns#"
   xmlns:svg="http://www.w3.org/2000/svg"
   xmlns="http://www.w3.org/2000/svg"
   xmlns:sodipodi="http://sodipodi.sourceforge.net/DTD/sodipodi-0.dtd"
   xmlns:inkscape="http://www.inkscape.org/namespaces/inkscape"
   width="800px"
   height="800px"
   viewBox="0 0 24 24"
   version="1.1"
   id="svg14"
   sodipodi:docname="no-sound.svg"
   inkscape:version="0.92.5 (2060ec1f9f, 2020-04-08)">
  <metadata
     id="metadata20">
    <rdf:RDF>
      <cc:Work
         rdf:about="">
        <dc:format>image/svg+xml</dc:format>
        <dc:type
           rdf:resource="http://purl.org/dc/dcmitype/StillImage" />
        <dc:title></dc:title>
      </cc:Work>
    </rdf:RDF>
  </metadata>
  <defs
     id="defs18">
    <inkscape:path-effect
       effect="powerstroke"
       id="path-effect24"
       is_visible="true"
       offset_points="1,0.015"
       sort_points="true"
       interpolator_type="CubicBezierJohan"
       interpolator_beta="0.2"
       start_linecap_type="zerowidth"
       linejoin_type="extrp_arc"
       miter_limit="4"
       end_linecap_type="zerowidth" />
    <inkscape:path-effect
       effect="powerstroke"
       id="path-effect24-3"
       is_visible="true"
       offset_points="1,0.015"
       sort_points="true"
       interpolator_type="CubicBezierJohan"
       interpolator_beta="0.2"
       start_linecap_type="zerowidth"
       linejoin_type="extrp_arc"
       miter_limit="4"
       end_linecap_type="zerowidth" />
  </defs>
  <sodipodi:namedview
     pagecolor="#ffffff"
     bordercolor="#666666"
     borderopacity="1"
     objecttolerance="10"
     gridtolerance="10"
     guidetolerance="10"
     inkscape:pageopacity="0"
     inkscape:pageshadow="2"
     inkscape:window-width="1398"
     inkscape:window-height="851"
     id="namedview16"
     showgrid="false"
     inkscape:zoom="0.295"
     inkscape:cx="-200"
     inkscape:cy="400"
     inkscape:window-x="42"
     inkscape:window-y="25"
     inkscape:window-maximized="1"
     inkscape:current-layer="svg14" />
  <g
     transform="translate(0 -1028.4)"
     id="g12">
    <path
       d="m6 3a3 3 0 1 1 -6 0 3 3 0 1 1 6 0z"
       transform="translate(9 1045.4)"
       fill="#f39c12"
       id="path2" />
    <path
       d="m12 0c-0.828 1.4803e-16 -1.5 0.67157-1.5 1.5 0 0.1829 0.034 0.3691 0.094 0.5312-1.3613 0.1978-2.4534 0.6879-3.2502 1.4688-0.8462 0.8288-1.2501 1.9648-1.25 3.375-0.0001 2.2393-0.4576 4.381-1.3126 6.406-0.8549 2.017-2.1065 3.687-3.7812 5.063 0 0.444 0.1651 0.831 0.5 1.156s0.7292 0.5 1.1875 0.5h3.2813 2.625 0.4687 0.5937 0.4378 0.562 4.75 5.906c0.459 0 0.853-0.175 1.188-0.5s0.5-0.712 0.5-1.156c-1.675-1.376-2.926-3.046-3.781-5.063-0.855-2.025-1.313-4.1667-1.313-6.406 0-1.4102-0.404-2.5462-1.25-3.375-0.797-0.7809-1.889-1.271-3.25-1.4688 0.06-0.1621 0.094-0.3483 0.094-0.5312 0-0.82843-0.672-1.5-1.5-1.5z"
       transform="translate(0 1028.4)"
       fill="#f1c40f"
       id="path4" />
    <path
       d="m12 1045.4c-1.657 0-3 1.3-3 3 0 1.6 1.343 3 3 3v-6z"
       fill="#e67e22"
       id="path6" />
    <path
       fill="#f39c12"
       d="m12 1028.4c-0.828 0-1.5 0.6-1.5 1.5 0 0.1 0.034 0.3 0.094 0.5-1.3613 0.2-2.4534 0.7-3.2502 1.5-0.8462 0.8-1.2501 1.9-1.25 3.3-0.0001 2.3-0.4576 4.4-1.3126 6.4-0.8549 2.1-2.1065 3.7-3.7812 5.1 0 0.5 0.1651 0.8 0.5 1.2 0.3349 0.3 0.7292 0.5 1.1875 0.5h3.2813 2.625 0.4687 0.5937 0.4378 0.562 1.344v-20z"
       id="path8" />
    <path
       d="m9 1048.4c0 0.3 0.074 0.6 0.1875 1h5.6245c0.114-0.4 0.188-0.7 0.188-1h-6z"
       fill="#e67e22"
       id="path10" />
  </g>
  <path
     style="fill:#800000;fill-rule:nonzero;stroke:#ff0000;stroke-width:3.24880981;stroke-linecap:butt;stroke-linejoin:miter;stroke-miterlimit:4;stroke-dasharray:none;stroke-opacity:1"
     d="M 20.644068,2.440678 C 17.023729,6.2847458 6.1517923,17.806665 2.5314533,21.650733 c 0,0 0.01092,0.01028 0.01092,0.01028 0,0 0.01092,0.01028 0.01092,0.01028 C 6.1736315,17.827233 17.023729,6.2847458 20.644068,2.440678 Z"
     id="path22"
     inkscape:connector-curvature="0"
     inkscape:path-effect="#path-effect24"
     inkscape:original-d="M 20.644068,2.440678 2.5423729,21.661017"
     transform="matrix(0.92341508,0,0,0.92341508,1.7297181,1.1407768)" />
  <path
     style="fill:#800000;fill-rule:nonzero;stroke:#ff0000;stroke-width:3.24880981;stroke-linecap:butt;stroke-linejoin:miter;stroke-miterlimit:4;stroke-dasharray:none;stroke-opacity:1"
     d="M 20.644068,2.440678 C 17.023729,6.2847458 6.1517923,17.806665 2.5314533,21.650733 c 0,0 0.01092,0.01028 0.01092,0.01028 0,0 0.01092,0.01028 0.01092,0.01028 C 6.1736315,17.827233 17.023729,6.2847458 20.644068,2.440678 Z"
     id="path22-6"
     inkscape:connector-curvature="0"
     inkscape:path-effect="#path-effect24-3"
     inkscape:original-d="M 20.644068,2.440678 2.5423729,21.661017"
     transform="matrix(-0.92341509,0,0,0.92341509,22.101715,1.1407767)" />
</svg>
