<?xml version="1.0" encoding="UTF-8" standalone="no"?>
<!-- Uploaded to: SVG Repo, www.svgrepo.com, Generator: SVG Repo Mixer Tools -->

<svg
   xmlns:dc="http://purl.org/dc/elements/1.1/"
   xmlns:cc="http://creativecommons.org/ns#"
   xmlns:rdf="http://www.w3.org/1999/02/22-rdf-syntax-ns#"
   xmlns:svg="http://www.w3.org/2000/svg"
   xmlns="http://www.w3.org/2000/svg"
   xmlns:sodipodi="http://sodipodi.sourceforge.net/DTD/sodipodi-0.dtd"
   xmlns:inkscape="http://www.inkscape.org/namespaces/inkscape"
   width="1333.3336"
   height="666.66669"
   viewBox="0 0 40.000009 20.000001"
   id="stop-square"
   data-name="Flat Line"
   class="icon flat-line"
   version="1.1"
   sodipodi:docname="stop.svg"
   style="fill:#000000"
   inkscape:version="0.92.5 (2060ec1f9f, 2020-04-08)">
  <metadata
     id="metadata9">
    <rdf:RDF>
      <cc:Work
         rdf:about="">
        <dc:format>image/svg+xml</dc:format>
        <dc:type
           rdf:resource="http://purl.org/dc/dcmitype/StillImage" />
        <dc:title></dc:title>
      </cc:Work>
    </rdf:RDF>
  </metadata>
  <defs
     id="defs7" />
  <sodipodi:namedview
     pagecolor="#ffffff"
     bordercolor="#666666"
     borderopacity="1"
     objecttolerance="10"
     gridtolerance="10"
     guidetolerance="10"
     inkscape:pageopacity="0"
     inkscape:pageshadow="2"
     inkscape:window-width="1638"
     inkscape:window-height="1001"
     id="namedview5"
     showgrid="false"
     fit-margin-top="0"
     fit-margin-left="0"
     fit-margin-right="0"
     fit-margin-bottom="0"
     inkscape:zoom="0.59"
     inkscape:cx="503.68095"
     inkscape:cy="430.42385"
     inkscape:window-x="42"
     inkscape:window-y="25"
     inkscape:window-maximized="1"
     inkscape:current-layer="stop-square" />
  <rect
     style="opacity:1;vector-effect:none;fill:#ffffff;fill-opacity:1;stroke:#000000;stroke-width:0.11338583;stroke-linecap:butt;stroke-linejoin:round;stroke-miterlimit:4;stroke-dasharray:none;stroke-dashoffset:0;stroke-opacity:1"
     id="rect837-7"
     width="12.305085"
     height="12.101695"
     x="23.559332"
     y="3.5254245" />
  <path
     id="secondary"
     d="m 38.00001,1 h -16 a 1,1 0 0 0 -1,1 v 16 a 1,1 0 0 0 1,1 h 16 a 1,1 0 0 0 1,-1 V 2 a 1,1 0 0 0 -1,-1 z m -4,12 a 1,1 0 0 1 -1,1 h -6 a 1,1 0 0 1 -1,-1 V 7 a 1,1 0 0 1 1,-1 h 6 a 1,1 0 0 1 1,1 z"
     style="fill:#2ca9bc;stroke-width:2"
     inkscape:connector-curvature="0" />
  <path
     id="primary"
     d="m 33.00001,14 h -6 a 1,1 0 0 1 -1,-1 V 7 a 1,1 0 0 1 1,-1 h 6 a 1,1 0 0 1 1,1 v 6 a 1,1 0 0 1 -1,1 z m 6,4 V 2 a 1,1 0 0 0 -1,-1 h -16 a 1,1 0 0 0 -1,1 v 16 a 1,1 0 0 0 1,1 h 16 a 1,1 0 0 0 1,-1 z"
     style="fill:none;stroke:#000000;stroke-width:2;stroke-linecap:round;stroke-linejoin:round"
     inkscape:connector-curvature="0" />
  <rect
     style="opacity:1;vector-effect:none;fill:#ffffff;fill-opacity:1;stroke:#000000;stroke-width:0.11338583;stroke-linecap:butt;stroke-linejoin:round;stroke-miterlimit:4;stroke-dasharray:none;stroke-dashoffset:0;stroke-opacity:1"
     id="rect837"
     width="12.305085"
     height="12.101695"
     x="3.8305192"
     y="3.8305092" />
  <path
     id="secondary-3"
     d="M 18.000009,1.0000013 H 2 A 1.0000005,0.99999997 0 0 0 1,2.0000012 V 18.000001 a 1.0000005,0.99999997 0 0 0 1,1 h 16.000009 a 1.0000005,0.99999997 0 0 0 1.000001,-1 V 2.0000012 A 1.0000005,0.99999997 0 0 0 18.000009,1.0000013 Z M 14.000007,13.000001 a 1.0000005,0.99999997 0 0 1 -1,1 H 7.000003 a 1.0000005,0.99999997 0 0 1 -1,-1 V 7.0000011 a 1.0000005,0.99999997 0 0 1 1,-0.9999999 h 6.000004 a 1.0000005,0.99999997 0 0 1 1,0.9999999 z"
     style="fill:#69ccdb;fill-opacity:1;stroke-width:2"
     inkscape:connector-curvature="0" />
  <path
     id="primary-6"
     d="M 13.000007,14.000001 H 7.000003 a 1.0000005,0.99999997 0 0 1 -1,-1 V 7.0000011 a 1.0000005,0.99999997 0 0 1 1,-0.9999999 h 6.000004 a 1.0000005,0.99999997 0 0 1 1,0.9999999 v 5.9999999 a 1.0000005,0.99999997 0 0 1 -1,1 z m 6.000003,4 V 2.0000012 A 1.0000005,0.99999997 0 0 0 18.000009,1.0000013 H 2 A 1.0000005,0.99999997 0 0 0 1,2.0000012 V 18.000001 a 1.0000005,0.99999997 0 0 0 1,1 h 16.000009 a 1.0000005,0.99999997 0 0 0 1.000001,-1 z"
     style="fill:none;stroke:#000000;stroke-width:2;stroke-linecap:round;stroke-linejoin:round"
     inkscape:connector-curvature="0" />
</svg>
