<?xml version="1.0" encoding="UTF-8" standalone="no"?>
<!-- Created with Inkscape (http://www.inkscape.org/) -->

<svg
   width="150mm"
   height="150mm"
   viewBox="0 0 150 150"
   version="1.1"
   id="svg5"
   xml:space="preserve"
   inkscape:version="1.2.2 (1:1.2.2+202305151914+b0a8486541)"
   sodipodi:docname="minutes.svg"
   xmlns:inkscape="http://www.inkscape.org/namespaces/inkscape"
   xmlns:sodipodi="http://sodipodi.sourceforge.net/DTD/sodipodi-0.dtd"
   xmlns="http://www.w3.org/2000/svg"
   xmlns:svg="http://www.w3.org/2000/svg"><sodipodi:namedview
     id="namedview7"
     pagecolor="#ffffff"
     bordercolor="#666666"
     borderopacity="1.0"
     inkscape:showpageshadow="2"
     inkscape:pageopacity="0.0"
     inkscape:pagecheckerboard="0"
     inkscape:deskcolor="#d1d1d1"
     inkscape:document-units="mm"
     showgrid="false"
     inkscape:zoom="1.4499167"
     inkscape:cx="181.73458"
     inkscape:cy="284.15426"
     inkscape:window-width="1884"
     inkscape:window-height="1025"
     inkscape:window-x="36"
     inkscape:window-y="0"
     inkscape:window-maximized="1"
     inkscape:current-layer="svg5" /><defs
     id="defs2"><rect
       x="84.226936"
       y="552.41034"
       width="39.50808"
       height="38.440304"
       id="rect1261" /><rect
       x="84.226936"
       y="552.41034"
       width="39.50808"
       height="38.440304"
       id="rect1261-5" /><rect
       x="84.226936"
       y="552.41034"
       width="39.50808"
       height="38.440304"
       id="rect1261-5-2" /><rect
       x="84.226936"
       y="552.41034"
       width="39.50808"
       height="38.440304"
       id="rect1261-5-2-4" /><rect
       x="84.226936"
       y="552.41034"
       width="39.50808"
       height="38.440304"
       id="rect1261-5-2-4-5" /><rect
       x="84.226936"
       y="552.41034"
       width="39.50808"
       height="38.440304"
       id="rect1261-5-2-4-5-2" /><rect
       x="84.226936"
       y="552.41034"
       width="39.50808"
       height="38.440304"
       id="rect1261-5-2-4-5-2-2" /><rect
       x="84.226936"
       y="552.41034"
       width="39.50808"
       height="38.440304"
       id="rect1261-5-2-4-5-2-2-9" /><rect
       x="84.226936"
       y="552.41034"
       width="39.50808"
       height="38.440304"
       id="rect1261-5-2-4-5-2-2-9-3" /><rect
       x="84.226936"
       y="552.41034"
       width="39.50808"
       height="38.440304"
       id="rect1261-5-2-4-5-2-2-9-3-1" /><rect
       x="84.226936"
       y="552.41034"
       width="39.50808"
       height="38.440304"
       id="rect1261-5-2-4-5-2-2-9-3-1-2" /><rect
       x="84.226936"
       y="552.41034"
       width="39.50808"
       height="38.440304"
       id="rect1261-5-2-4-5-2-2-9-3-1-2-9" /><rect
       x="84.226936"
       y="552.41034"
       width="39.50808"
       height="38.440304"
       id="rect1261-5-2-4-5-2-2-9-3-1-2-9-4" /><rect
       x="84.226936"
       y="552.41034"
       width="39.50808"
       height="38.440304"
       id="rect1261-5-2-4-5-2-2-9-3-1-2-9-4-0" /><rect
       x="84.226936"
       y="552.41034"
       width="39.50808"
       height="38.440304"
       id="rect1261-5-2-4-5-2-2-9-3-1-2-9-7" /><rect
       x="84.226936"
       y="552.41034"
       width="39.50808"
       height="38.440304"
       id="rect1261-5-2-4-5-2-2-9-3-1-2-4" /><rect
       x="84.226936"
       y="552.41034"
       width="39.50808"
       height="38.440304"
       id="rect1261-5-2-4-5-2-2-9-3-1-3" /><rect
       x="84.226936"
       y="552.41034"
       width="39.50808"
       height="38.440304"
       id="rect1261-5-2-4-5-2-2-9-3-7" /><rect
       x="84.226936"
       y="552.41034"
       width="39.50808"
       height="38.440304"
       id="rect1261-5-2-4-5-2-2-9-9" /><rect
       x="84.226936"
       y="552.41034"
       width="39.50808"
       height="38.440304"
       id="rect1261-5-2-4-5-2-2-0" /><rect
       x="84.226936"
       y="552.41034"
       width="39.50808"
       height="38.440304"
       id="rect1261-5-2-4-5-2-0" /><rect
       x="84.226936"
       y="552.41034"
       width="39.50808"
       height="38.440304"
       id="rect1261-5-2-4-5-22" /><rect
       x="84.226936"
       y="552.41034"
       width="39.50808"
       height="38.440304"
       id="rect1261-5-2-4-6" /><rect
       x="84.226936"
       y="552.41034"
       width="39.50808"
       height="38.440304"
       id="rect1261-5-2-9" /><rect
       x="84.226936"
       y="552.41034"
       width="39.50808"
       height="38.440304"
       id="rect1261-5-0" /><rect
       x="84.226936"
       y="552.41034"
       width="39.50808"
       height="38.440304"
       id="rect1261-5-0-9" /><rect
       x="84.226936"
       y="552.41034"
       width="39.50808"
       height="38.440304"
       id="rect1261-5-2-9-3" /><rect
       x="84.226936"
       y="552.41034"
       width="39.50808"
       height="38.440304"
       id="rect1261-5-2-4-6-5" /><rect
       x="84.226936"
       y="552.41034"
       width="39.50808"
       height="38.440304"
       id="rect1261-5-2-4-5-22-4" /><rect
       x="84.226936"
       y="552.41034"
       width="39.50808"
       height="38.440304"
       id="rect1261-5-2-4-5-2-0-3" /><rect
       x="84.226936"
       y="552.41034"
       width="39.50808"
       height="38.440304"
       id="rect1261-5-2-4-5-2-2-0-6" /><rect
       x="84.226936"
       y="552.41034"
       width="39.50808"
       height="38.440304"
       id="rect1261-5-2-4-5-2-2-9-9-4" /><rect
       x="84.226936"
       y="552.41034"
       width="39.50808"
       height="38.440304"
       id="rect1261-5-2-4-5-2-2-9-3-7-3" /><rect
       x="84.226936"
       y="552.41034"
       width="39.50808"
       height="38.440304"
       id="rect1261-5-2-4-5-2-2-9-3-1-3-1" /><rect
       x="84.226936"
       y="552.41034"
       width="39.50808"
       height="38.440304"
       id="rect1261-5-2-4-5-2-2-9-3-1-2-4-9" /><rect
       x="84.226936"
       y="552.41034"
       width="39.50808"
       height="38.440304"
       id="rect1261-5-2-4-5-2-2-9-3-1-2-9-7-1" /><rect
       x="84.226936"
       y="552.41034"
       width="39.50808"
       height="38.440304"
       id="rect1261-5-2-4-5-2-2-9-3-1-2-9-4-0-0" /></defs><g
     inkscape:groupmode="layer"
     id="layer5"
     inkscape:label="Minutes"
     style="display:inline"
     transform="translate(-60.610977,-26.719838)"><g
       id="g2517-9"
       transform="translate(-92.280622,70.707042)"
       style="display:inline;fill:#2a7fff"
       inkscape:label="groupe_min"><g
         aria-label="5"
         transform="matrix(0.26458333,0,0,0.26458333,235.01999,-177.64385)"
         id="text1259-0-3-4"
         style="font-size:24px;line-height:1.25;white-space:pre;shape-inside:url(#rect1261-5-0-9);display:inline;fill:#55d400"
         inkscape:label="5"
         inkscape:transform-center-x="60.847041"
         inkscape:transform-center-y="-97.900168"><path
           d="m 98.302734,569.52826 2.214846,-0.1875 q 0.24609,1.61719 1.13672,2.4375 0.90234,0.8086 2.16797,0.8086 1.52343,0 2.57812,-1.14844 1.05469,-1.14844 1.05469,-3.04688 0,-1.80468 -1.01953,-2.84765 -1.00782,-1.04297 -2.64844,-1.04297 -1.01953,0 -1.83984,0.46875 -0.82032,0.45703 -1.28907,1.19531 l -1.980466,-0.25781 1.664066,-8.82422 h 8.54297 v 2.01562 h -6.85547 l -0.92578,4.61719 q 1.54687,-1.07812 3.24609,-1.07812 2.25,0 3.79687,1.55859 1.54688,1.55859 1.54688,4.00781 0,2.33203 -1.35938,4.03125 -1.65234,2.08594 -4.51171,2.08594 -2.34375,0 -3.832036,-1.3125 -1.476562,-1.3125 -1.6875,-3.48047 z"
           style="font-family:Arial;-inkscape-font-specification:Arial;text-align:center;text-anchor:middle"
           id="path546" /></g><g
         aria-label="10"
         transform="matrix(0.26458333,0,0,0.26458333,260.142,-152.94301)"
         id="text1259-0-6-5-5"
         style="font-size:24px;line-height:1.25;white-space:pre;shape-inside:url(#rect1261-5-2-9-3);display:inline;fill:#55d400"
         inkscape:label="10"
         inkscape:transform-center-x="60.847041"
         inkscape:transform-center-y="-97.900168"><path
           d="m 99.574219,574.02826 h -2.109375 v -13.4414 q -0.761719,0.72656 -2.003907,1.45312 -1.230468,0.72656 -2.214843,1.08984 v -2.03906 q 1.769531,-0.83203 3.09375,-2.01562 1.324218,-1.1836 1.875,-2.29688 h 1.359375 z"
           style="font-family:Arial;-inkscape-font-specification:Arial;text-align:center;text-anchor:middle"
           id="path549" /><path
           d="m 104.97656,565.55561 q 0,-3.04688 0.6211,-4.89844 0.63281,-1.86328 1.86328,-2.8711 1.24219,-1.00781 3.11719,-1.00781 1.38281,0 2.42578,0.5625 1.04297,0.55078 1.72265,1.60547 0.67969,1.04297 1.06641,2.55469 0.38672,1.5 0.38672,4.05469 0,3.02343 -0.6211,4.88671 -0.62109,1.85157 -1.86328,2.8711 -1.23047,1.00781 -3.11718,1.00781 -2.48438,0 -3.90235,-1.78125 -1.69922,-2.14453 -1.69922,-6.98437 z m 2.16797,0 q 0,4.23046 0.98438,5.63671 0.99609,1.39454 2.44922,1.39454 1.45312,0 2.4375,-1.40625 0.99609,-1.40625 0.99609,-5.625 0,-4.24219 -0.99609,-5.63672 -0.98438,-1.39453 -2.46094,-1.39453 -1.45313,0 -2.32031,1.23046 -1.08985,1.57032 -1.08985,5.80079 z"
           style="font-family:Arial;-inkscape-font-specification:Arial;text-align:center;text-anchor:middle"
           id="path551" /></g><g
         aria-label="15"
         transform="matrix(0.26458333,0,0,0.26458333,269.57722,-118.79098)"
         id="text1259-0-6-8-5-6"
         style="font-size:24px;line-height:1.25;white-space:pre;shape-inside:url(#rect1261-5-2-4-6-5);display:inline;fill:#55d400"
         inkscape:label="15"
         inkscape:transform-center-x="60.847041"
         inkscape:transform-center-y="-97.900168"><path
           d="m 97.574219,574.02826 h -2.109375 v -13.4414 q -0.761719,0.72656 -2.003907,1.45312 -1.230468,0.72656 -2.214843,1.08984 v -2.03906 q 1.769531,-0.83203 3.09375,-2.01562 1.324218,-1.1836 1.875,-2.29688 h 1.359375 z"
           style="font-family:Arial;-inkscape-font-specification:Arial;text-align:center;text-anchor:middle"
           id="path554" /><path
           d="m 102.97656,569.52826 2.21485,-0.1875 q 0.24609,1.61719 1.13672,2.4375 0.90234,0.8086 2.16796,0.8086 1.52344,0 2.57813,-1.14844 1.05469,-1.14844 1.05469,-3.04688 0,-1.80468 -1.01953,-2.84765 -1.00782,-1.04297 -2.64844,-1.04297 -1.01953,0 -1.83985,0.46875 -0.82031,0.45703 -1.28906,1.19531 l -1.98047,-0.25781 1.66407,-8.82422 h 8.54296 v 2.01562 h -6.85546 l -0.92579,4.61719 q 1.54688,-1.07812 3.2461,-1.07812 2.25,0 3.79687,1.55859 1.54688,1.55859 1.54688,4.00781 0,2.33203 -1.35938,4.03125 -1.65234,2.08594 -4.51172,2.08594 -2.34375,0 -3.83203,-1.3125 -1.47656,-1.3125 -1.6875,-3.48047 z"
           style="font-family:Arial;-inkscape-font-specification:Arial;text-align:center;text-anchor:middle"
           id="path556" /></g><g
         aria-label="20"
         transform="matrix(0.26458333,0,0,0.26458333,261.70921,-84.133275)"
         id="text1259-0-6-8-6-8-2"
         style="font-size:24px;line-height:1.25;white-space:pre;shape-inside:url(#rect1261-5-2-4-5-22-4);display:inline;fill:#55d400"
         inkscape:label="20"
         inkscape:transform-center-x="60.847041"
         inkscape:transform-center-y="-97.900168"><path
           d="m 100.71484,572.00092 v 2.02734 H 89.359375 q -0.02344,-0.76172 0.246094,-1.46484 0.433593,-1.16016 1.382812,-2.28516 0.960938,-1.125 2.765625,-2.60156 2.800781,-2.29688 3.785156,-3.63281 0.984378,-1.34766 0.984378,-2.54297 0,-1.25391 -0.902346,-2.10938 -0.890625,-0.86718 -2.332032,-0.86718 -1.523437,0 -2.4375,0.91406 -0.914062,0.91406 -0.925781,2.53125 l -2.167969,-0.22266 q 0.222657,-2.42578 1.675782,-3.6914 1.453125,-1.27735 3.902343,-1.27735 2.472657,0 3.914063,1.3711 1.44141,1.37109 1.44141,3.39843 0,1.03125 -0.42188,2.02735 -0.42187,0.99609 -1.40625,2.09765 -0.972655,1.10157 -3.246093,3.02344 -1.898437,1.59375 -2.4375,2.16797 -0.539062,0.5625 -0.890625,1.13672 z"
           style="font-family:Arial;-inkscape-font-specification:Arial;text-align:center;text-anchor:middle"
           id="path559" /><path
           d="m 102.97656,565.55561 q 0,-3.04688 0.6211,-4.89844 0.63281,-1.86328 1.86328,-2.8711 1.24219,-1.00781 3.11719,-1.00781 1.38281,0 2.42578,0.5625 1.04297,0.55078 1.72265,1.60547 0.67969,1.04297 1.06641,2.55469 0.38672,1.5 0.38672,4.05469 0,3.02343 -0.6211,4.88671 -0.62109,1.85157 -1.86328,2.8711 -1.23047,1.00781 -3.11718,1.00781 -2.48438,0 -3.90235,-1.78125 -1.69922,-2.14453 -1.69922,-6.98437 z m 2.16797,0 q 0,4.23046 0.98438,5.63671 0.99609,1.39454 2.44922,1.39454 1.45312,0 2.4375,-1.40625 0.99609,-1.40625 0.99609,-5.625 0,-4.24219 -0.99609,-5.63672 -0.98438,-1.39453 -2.46094,-1.39453 -1.45313,0 -2.32031,1.23046 -1.08985,1.57032 -1.08985,5.80079 z"
           style="font-family:Arial;-inkscape-font-specification:Arial;text-align:center;text-anchor:middle"
           id="path561" /></g><g
         aria-label="25"
         transform="matrix(0.26458333,0,0,0.26458333,235.21024,-59.135287)"
         id="text1259-0-6-8-6-5-7-5"
         style="font-size:24px;line-height:1.25;white-space:pre;shape-inside:url(#rect1261-5-2-4-5-2-0-3);display:inline;fill:#55d400"
         inkscape:label="25"
         inkscape:transform-center-x="60.847041"
         inkscape:transform-center-y="-97.900168"><path
           d="m 102.71484,572.00092 v 2.02734 H 91.359375 q -0.02344,-0.76172 0.246094,-1.46484 0.433593,-1.16016 1.382812,-2.28516 0.960938,-1.125 2.765625,-2.60156 2.800781,-2.29688 3.785156,-3.63281 0.984378,-1.34766 0.984378,-2.54297 0,-1.25391 -0.902346,-2.10938 -0.890625,-0.86718 -2.332032,-0.86718 -1.523437,0 -2.4375,0.91406 -0.914062,0.91406 -0.925781,2.53125 l -2.167969,-0.22266 q 0.222657,-2.42578 1.675782,-3.6914 1.453125,-1.27735 3.902343,-1.27735 2.472657,0 3.914063,1.3711 1.44141,1.37109 1.44141,3.39843 0,1.03125 -0.42188,2.02735 -0.42187,0.99609 -1.40625,2.09765 -0.972655,1.10157 -3.246093,3.02344 -1.898437,1.59375 -2.4375,2.16797 -0.539062,0.5625 -0.890625,1.13672 z"
           style="font-family:Arial;-inkscape-font-specification:Arial;text-align:center;text-anchor:middle"
           id="path564" /><path
           d="m 104.97656,569.52826 2.21485,-0.1875 q 0.24609,1.61719 1.13672,2.4375 0.90234,0.8086 2.16796,0.8086 1.52344,0 2.57813,-1.14844 1.05469,-1.14844 1.05469,-3.04688 0,-1.80468 -1.01953,-2.84765 -1.00782,-1.04297 -2.64844,-1.04297 -1.01953,0 -1.83985,0.46875 -0.82031,0.45703 -1.28906,1.19531 l -1.98047,-0.25781 1.66407,-8.82422 h 8.54296 v 2.01562 h -6.85546 l -0.92579,4.61719 q 1.54688,-1.07812 3.2461,-1.07812 2.25,0 3.79687,1.55859 1.54688,1.55859 1.54688,4.00781 0,2.33203 -1.35938,4.03125 -1.65234,2.08594 -4.51172,2.08594 -2.34375,0 -3.83203,-1.3125 -1.47656,-1.3125 -1.6875,-3.48047 z"
           style="font-family:Arial;-inkscape-font-specification:Arial;text-align:center;text-anchor:middle"
           id="path566" /></g><g
         aria-label="30"
         transform="matrix(0.26458333,0,0,0.26458333,201.1394,-50.56388)"
         id="text1259-0-6-8-6-5-6-17-9"
         style="font-size:24px;line-height:1.25;white-space:pre;shape-inside:url(#rect1261-5-2-4-5-2-2-0-6);display:inline;fill:#55d400"
         inkscape:label="30"
         inkscape:transform-center-x="60.847041"
         inkscape:transform-center-y="-97.900168"><path
           d="M 91.640625,569.49311 93.75,569.21186 q 0.363281,1.79296 1.230469,2.58984 0.878906,0.78516 2.132812,0.78516 1.488281,0 2.507813,-1.03125 1.031246,-1.03125 1.031246,-2.55469 0,-1.45313 -0.949215,-2.39063 -0.949219,-0.94922 -2.414063,-0.94922 -0.597656,0 -1.488281,0.23438 l 0.234375,-1.85156 q 0.210938,0.0234 0.339844,0.0234 1.347656,0 2.425781,-0.70312 1.078125,-0.70313 1.078125,-2.16797 0,-1.16016 -0.785156,-1.92187 -0.785156,-0.76172 -2.027344,-0.76172 -1.230469,0 -2.050781,0.77343 -0.820313,0.77344 -1.054688,2.32032 l -2.109375,-0.375 q 0.386719,-2.1211 1.757813,-3.28125 1.371094,-1.17188 3.410156,-1.17188 1.40625,0 2.589844,0.60938 1.183595,0.59765 1.804685,1.64062 0.63282,1.04297 0.63282,2.21485 0,1.11328 -0.59766,2.02734 -0.59766,0.91406 -1.769533,1.45312 1.523443,0.35157 2.367193,1.46485 0.84375,1.10156 0.84375,2.76562 0,2.25 -1.64063,3.82032 -1.640625,1.55859 -4.148438,1.55859 -2.261718,0 -3.761718,-1.34766 -1.488282,-1.34765 -1.699219,-3.49218 z"
           style="font-family:Arial;-inkscape-font-specification:Arial;text-align:center;text-anchor:middle"
           id="path569" /><path
           d="m 104.97656,565.55561 q 0,-3.04688 0.6211,-4.89844 0.63281,-1.86328 1.86328,-2.8711 1.24219,-1.00781 3.11719,-1.00781 1.38281,0 2.42578,0.5625 1.04297,0.55078 1.72265,1.60547 0.67969,1.04297 1.06641,2.55469 0.38672,1.5 0.38672,4.05469 0,3.02343 -0.6211,4.88671 -0.62109,1.85157 -1.86328,2.8711 -1.23047,1.00781 -3.11718,1.00781 -2.48438,0 -3.90235,-1.78125 -1.69922,-2.14453 -1.69922,-6.98437 z m 2.16797,0 q 0,4.23046 0.98438,5.63671 0.99609,1.39454 2.44922,1.39454 1.45312,0 2.4375,-1.40625 0.99609,-1.40625 0.99609,-5.625 0,-4.24219 -0.99609,-5.63672 -0.98438,-1.39453 -2.46094,-1.39453 -1.45313,0 -2.32031,1.23046 -1.08985,1.57032 -1.08985,5.80079 z"
           style="font-family:Arial;-inkscape-font-specification:Arial;text-align:center;text-anchor:middle"
           id="path571" /></g><g
         aria-label="35"
         transform="matrix(0.26458333,0,0,0.26458333,166.94745,-58.441974)"
         id="text1259-0-6-8-6-5-6-1-0-1"
         style="font-size:24px;line-height:1.25;white-space:pre;shape-inside:url(#rect1261-5-2-4-5-2-2-9-9-4);display:inline;fill:#55d400"
         inkscape:label="35"
         inkscape:transform-center-x="60.847041"
         inkscape:transform-center-y="-97.900168"><path
           d="M 91.640625,569.49311 93.75,569.21186 q 0.363281,1.79296 1.230469,2.58984 0.878906,0.78516 2.132812,0.78516 1.488281,0 2.507813,-1.03125 1.031246,-1.03125 1.031246,-2.55469 0,-1.45313 -0.949215,-2.39063 -0.949219,-0.94922 -2.414063,-0.94922 -0.597656,0 -1.488281,0.23438 l 0.234375,-1.85156 q 0.210938,0.0234 0.339844,0.0234 1.347656,0 2.425781,-0.70312 1.078125,-0.70313 1.078125,-2.16797 0,-1.16016 -0.785156,-1.92187 -0.785156,-0.76172 -2.027344,-0.76172 -1.230469,0 -2.050781,0.77343 -0.820313,0.77344 -1.054688,2.32032 l -2.109375,-0.375 q 0.386719,-2.1211 1.757813,-3.28125 1.371094,-1.17188 3.410156,-1.17188 1.40625,0 2.589844,0.60938 1.183595,0.59765 1.804685,1.64062 0.63282,1.04297 0.63282,2.21485 0,1.11328 -0.59766,2.02734 -0.59766,0.91406 -1.769533,1.45312 1.523443,0.35157 2.367193,1.46485 0.84375,1.10156 0.84375,2.76562 0,2.25 -1.64063,3.82032 -1.640625,1.55859 -4.148438,1.55859 -2.261718,0 -3.761718,-1.34766 -1.488282,-1.34765 -1.699219,-3.49218 z"
           style="font-family:Arial;-inkscape-font-specification:Arial;text-align:center;text-anchor:middle"
           id="path574" /><path
           d="m 104.97656,569.52826 2.21485,-0.1875 q 0.24609,1.61719 1.13672,2.4375 0.90234,0.8086 2.16796,0.8086 1.52344,0 2.57813,-1.14844 1.05469,-1.14844 1.05469,-3.04688 0,-1.80468 -1.01953,-2.84765 -1.00782,-1.04297 -2.64844,-1.04297 -1.01953,0 -1.83985,0.46875 -0.82031,0.45703 -1.28906,1.19531 l -1.98047,-0.25781 1.66407,-8.82422 h 8.54296 v 2.01562 h -6.85546 l -0.92579,4.61719 q 1.54688,-1.07812 3.2461,-1.07812 2.25,0 3.79687,1.55859 1.54688,1.55859 1.54688,4.00781 0,2.33203 -1.35938,4.03125 -1.65234,2.08594 -4.51172,2.08594 -2.34375,0 -3.83203,-1.3125 -1.47656,-1.3125 -1.6875,-3.48047 z"
           style="font-family:Arial;-inkscape-font-specification:Arial;text-align:center;text-anchor:middle"
           id="path576" /></g><g
         aria-label="40"
         transform="matrix(0.26458333,0,0,0.26458333,141.05745,-83.931952)"
         id="text1259-0-6-8-6-5-6-1-3-6-7"
         style="font-size:24px;line-height:1.25;white-space:pre;shape-inside:url(#rect1261-5-2-4-5-2-2-9-3-7-3);display:inline;fill:#55d400"
         inkscape:label="40"
         inkscape:transform-center-x="60.847041"
         inkscape:transform-center-y="-97.900168"><path
           d="m 98.390625,574.02826 v -4.11328 H 90.9375 v -1.93359 l 7.839844,-11.13282 H 100.5 v 11.13282 h 2.32031 v 1.93359 H 100.5 v 4.11328 z m 0,-6.04687 v -7.7461 l -5.378906,7.7461 z"
           style="font-family:Arial;-inkscape-font-specification:Arial;text-align:center;text-anchor:middle"
           id="path579" /><path
           d="m 104.97656,565.55561 q 0,-3.04688 0.6211,-4.89844 0.63281,-1.86328 1.86328,-2.8711 1.24219,-1.00781 3.11719,-1.00781 1.38281,0 2.42578,0.5625 1.04297,0.55078 1.72265,1.60547 0.67969,1.04297 1.06641,2.55469 0.38672,1.5 0.38672,4.05469 0,3.02343 -0.6211,4.88671 -0.62109,1.85157 -1.86328,2.8711 -1.23047,1.00781 -3.11718,1.00781 -2.48438,0 -3.90235,-1.78125 -1.69922,-2.14453 -1.69922,-6.98437 z m 2.16797,0 q 0,4.23046 0.98438,5.63671 0.99609,1.39454 2.44922,1.39454 1.45312,0 2.4375,-1.40625 0.99609,-1.40625 0.99609,-5.625 0,-4.24219 -0.99609,-5.63672 -0.98438,-1.39453 -2.46094,-1.39453 -1.45313,0 -2.32031,1.23046 -1.08985,1.57032 -1.08985,5.80079 z"
           style="font-family:Arial;-inkscape-font-specification:Arial;text-align:center;text-anchor:middle"
           id="path581" /></g><g
         aria-label="45"
         transform="matrix(0.26458333,0,0,0.26458333,131.88578,-118.08725)"
         id="text1259-0-6-8-6-5-6-1-3-5-0-7"
         style="font-size:24px;line-height:1.25;white-space:pre;shape-inside:url(#rect1261-5-2-4-5-2-2-9-3-1-3-1);display:inline;fill:#55d400"
         inkscape:label="45"
         inkscape:transform-center-x="60.847041"
         inkscape:transform-center-y="-97.900168"><path
           d="m 98.390625,574.02826 v -4.11328 H 90.9375 v -1.93359 l 7.839844,-11.13282 H 100.5 v 11.13282 h 2.32031 v 1.93359 H 100.5 v 4.11328 z m 0,-6.04687 v -7.7461 l -5.378906,7.7461 z"
           style="font-family:Arial;-inkscape-font-specification:Arial;text-align:center;text-anchor:middle"
           id="path584" /><path
           d="m 104.97656,569.52826 2.21485,-0.1875 q 0.24609,1.61719 1.13672,2.4375 0.90234,0.8086 2.16796,0.8086 1.52344,0 2.57813,-1.14844 1.05469,-1.14844 1.05469,-3.04688 0,-1.80468 -1.01953,-2.84765 -1.00782,-1.04297 -2.64844,-1.04297 -1.01953,0 -1.83985,0.46875 -0.82031,0.45703 -1.28906,1.19531 l -1.98047,-0.25781 1.66407,-8.82422 h 8.54296 v 2.01562 h -6.85546 l -0.92579,4.61719 q 1.54688,-1.07812 3.2461,-1.07812 2.25,0 3.79687,1.55859 1.54688,1.55859 1.54688,4.00781 0,2.33203 -1.35938,4.03125 -1.65234,2.08594 -4.51172,2.08594 -2.34375,0 -3.83203,-1.3125 -1.47656,-1.3125 -1.6875,-3.48047 z"
           style="font-family:Arial;-inkscape-font-specification:Arial;text-align:center;text-anchor:middle"
           id="path586" /></g><g
         aria-label="50"
         transform="matrix(0.26458333,0,0,0.26458333,141.76964,-153.75136)"
         id="text1259-0-6-8-6-5-6-1-3-5-6-41-4"
         style="font-size:24px;line-height:1.25;white-space:pre;shape-inside:url(#rect1261-5-2-4-5-2-2-9-3-1-2-4-9);display:inline;fill:#55d400"
         inkscape:label="50"
         inkscape:transform-center-x="60.847041"
         inkscape:transform-center-y="-97.900168"><path
           d="m 91.628906,569.52826 2.214844,-0.1875 q 0.246094,1.61719 1.136719,2.4375 0.902343,0.8086 2.167968,0.8086 1.523438,0 2.578125,-1.14844 1.054688,-1.14844 1.054688,-3.04688 0,-1.80468 -1.019531,-2.84765 -1.007813,-1.04297 -2.648438,-1.04297 -1.019531,0 -1.839844,0.46875 -0.820312,0.45703 -1.289062,1.19531 l -1.980469,-0.25781 1.664063,-8.82422 h 8.542971 v 2.01562 h -6.855471 l -0.925782,4.61719 q 1.546875,-1.07812 3.246094,-1.07812 2.25,0 3.796879,1.55859 1.54687,1.55859 1.54687,4.00781 0,2.33203 -1.35937,4.03125 -1.65235,2.08594 -4.511723,2.08594 -2.34375,0 -3.832031,-1.3125 -1.476562,-1.3125 -1.6875,-3.48047 z"
           style="font-family:Arial;-inkscape-font-specification:Arial;text-align:center;text-anchor:middle"
           id="path589" /><path
           d="m 104.97656,565.55561 q 0,-3.04688 0.6211,-4.89844 0.63281,-1.86328 1.86328,-2.8711 1.24219,-1.00781 3.11719,-1.00781 1.38281,0 2.42578,0.5625 1.04297,0.55078 1.72265,1.60547 0.67969,1.04297 1.06641,2.55469 0.38672,1.5 0.38672,4.05469 0,3.02343 -0.6211,4.88671 -0.62109,1.85157 -1.86328,2.8711 -1.23047,1.00781 -3.11718,1.00781 -2.48438,0 -3.90235,-1.78125 -1.69922,-2.14453 -1.69922,-6.98437 z m 2.16797,0 q 0,4.23046 0.98438,5.63671 0.99609,1.39454 2.44922,1.39454 1.45312,0 2.4375,-1.40625 0.99609,-1.40625 0.99609,-5.625 0,-4.24219 -0.99609,-5.63672 -0.98438,-1.39453 -2.46094,-1.39453 -1.45313,0 -2.32031,1.23046 -1.08985,1.57032 -1.08985,5.80079 z"
           style="font-family:Arial;-inkscape-font-specification:Arial;text-align:center;text-anchor:middle"
           id="path591" /></g><g
         aria-label="55"
         transform="matrix(0.26458333,0,0,0.26458333,167.32327,-178.66364)"
         id="text1259-0-6-8-6-5-6-1-3-5-6-4-3-1"
         style="font-size:24px;line-height:1.25;white-space:pre;shape-inside:url(#rect1261-5-2-4-5-2-2-9-3-1-2-9-7-1);display:inline;fill:#55d400"
         inkscape:label="55"
         inkscape:transform-center-x="60.847041"
         inkscape:transform-center-y="-97.900168"><path
           d="m 87.628906,571.52826 2.214844,-0.1875 q 0.246094,1.61719 1.136719,2.4375 0.902343,0.8086 2.167968,0.8086 1.523438,0 2.578125,-1.14844 1.054688,-1.14844 1.054688,-3.04688 0,-1.80468 -1.019531,-2.84765 -1.007813,-1.04297 -2.648438,-1.04297 -1.019531,0 -1.839844,0.46875 -0.820312,0.45703 -1.289062,1.19531 l -1.980469,-0.25781 1.664063,-8.82422 h 8.542971 v 2.01562 h -6.855471 l -0.925782,4.61719 q 1.546875,-1.07812 3.246094,-1.07812 2.25,0 3.796879,1.55859 1.54687,1.55859 1.54687,4.00781 0,2.33203 -1.35937,4.03125 -1.65235,2.08594 -4.511723,2.08594 -2.34375,0 -3.832031,-1.3125 -1.476562,-1.3125 -1.6875,-3.48047 z"
           style="font-family:Arial;-inkscape-font-specification:Arial;text-align:center;text-anchor:middle"
           id="path594" /><path
           d="m 100.97656,571.52826 2.21485,-0.1875 q 0.24609,1.61719 1.13672,2.4375 0.90234,0.8086 2.16796,0.8086 1.52344,0 2.57813,-1.14844 1.05469,-1.14844 1.05469,-3.04688 0,-1.80468 -1.01953,-2.84765 -1.00782,-1.04297 -2.64844,-1.04297 -1.01953,0 -1.83985,0.46875 -0.82031,0.45703 -1.28906,1.19531 l -1.98047,-0.25781 1.66407,-8.82422 h 8.54296 v 2.01562 h -6.85546 l -0.92579,4.61719 q 1.54688,-1.07812 3.2461,-1.07812 2.25,0 3.79687,1.55859 1.54688,1.55859 1.54688,4.00781 0,2.33203 -1.35938,4.03125 -1.65234,2.08594 -4.51172,2.08594 -2.34375,0 -3.83203,-1.3125 -1.47656,-1.3125 -1.6875,-3.48047 z"
           style="font-family:Arial;-inkscape-font-specification:Arial;text-align:center;text-anchor:middle"
           id="path596" /></g><g
         aria-label="0"
         transform="matrix(0.26458333,0,0,0.26458333,201.06984,-186.68369)"
         id="text1259-0-6-8-6-5-6-1-3-5-6-4-6-0-1"
         style="font-size:24px;line-height:1.25;white-space:pre;shape-inside:url(#rect1261-5-2-4-5-2-2-9-3-1-2-9-4-0-0);display:inline;fill:#55d400"
         inkscape:label="0"
         inkscape:transform-center-x="60.847041"
         inkscape:transform-center-y="-97.900168"><path
           d="m 96.302734,565.55561 q 0,-3.04688 0.621094,-4.89844 0.632813,-1.86328 1.863282,-2.8711 1.24219,-1.00781 3.11719,-1.00781 1.38281,0 2.42578,0.5625 1.04297,0.55078 1.72265,1.60547 0.67969,1.04297 1.06641,2.55469 0.38672,1.5 0.38672,4.05469 0,3.02343 -0.62109,4.88671 -0.6211,1.85157 -1.86329,2.8711 -1.23046,1.00781 -3.11718,1.00781 -2.48438,0 -3.90235,-1.78125 -1.699216,-2.14453 -1.699216,-6.98437 z m 2.167966,0 q 0,4.23046 0.98438,5.63671 0.99609,1.39454 2.44922,1.39454 1.45312,0 2.4375,-1.40625 0.99609,-1.40625 0.99609,-5.625 0,-4.24219 -0.99609,-5.63672 -0.98438,-1.39453 -2.46094,-1.39453 -1.45313,0 -2.32031,1.23046 -1.08985,1.57032 -1.08985,5.80079 z"
           style="font-family:Arial;-inkscape-font-specification:Arial;text-align:center;text-anchor:middle"
           id="path599" /></g></g></g></svg>
