<?xml version="1.0" encoding="UTF-8" standalone="no"?>
<!-- Uploaded to: SVG Repo, www.svgrepo.com, Generator: SVG Repo Mixer Tools -->

<svg
   width="800px"
   height="800px"
   viewBox="0 0 48 48"
   version="1.1"
   id="svg15"
   sodipodi:docname="reglages.svg"
   inkscape:version="1.1.2 (0a00cf5339, 2022-02-04)"
   xmlns:inkscape="http://www.inkscape.org/namespaces/inkscape"
   xmlns:sodipodi="http://sodipodi.sourceforge.net/DTD/sodipodi-0.dtd"
   xmlns="http://www.w3.org/2000/svg"
   xmlns:svg="http://www.w3.org/2000/svg"
   xmlns:rdf="http://www.w3.org/1999/02/22-rdf-syntax-ns#"
   xmlns:cc="http://creativecommons.org/ns#"
   xmlns:dc="http://purl.org/dc/elements/1.1/">
  <defs
     id="defs19" />
  <sodipodi:namedview
     id="namedview17"
     pagecolor="#ffffff"
     bordercolor="#666666"
     borderopacity="1.0"
     inkscape:pageshadow="2"
     inkscape:pageopacity="0.0"
     inkscape:pagecheckerboard="0"
     showgrid="false"
     inkscape:zoom="0.94125"
     inkscape:cx="317.66268"
     inkscape:cy="369.72112"
     inkscape:window-width="1600"
     inkscape:window-height="832"
     inkscape:window-x="0"
     inkscape:window-y="0"
     inkscape:window-maximized="1"
     inkscape:current-layer="svg15" />
  <title
     id="title2">information-circle</title>
  <path
     d="M 24,2 A 22,22 0 1 0 46,24 21.9,21.9 0 0 0 24,2 Z m 0,40 A 18,18 0 1 1 42,24 18.1,18.1 0 0 1 24,42 Z"
     id="path7"
     style="fill:#72a7cf;fill-opacity:1" />
  <metadata
     id="metadata836">
    <rdf:RDF>
      <cc:Work
         rdf:about="">
        <dc:title>information-circle</dc:title>
      </cc:Work>
    </rdf:RDF>
  </metadata>
  <path
     style="fill:#72a7cf;fill-opacity:1;stroke:none;stroke-width:0.0829605;-inkscape-stroke:none;stop-color:#000000"
     d="m 22.307418,37.267634 c -0.856565,-0.152607 -1.329553,-0.582707 -1.475043,-1.341286 -0.04256,-0.22194 -0.131163,-0.681255 -0.196882,-1.020703 -0.23035,-1.189778 -0.833038,-2.013251 -1.8133,-2.477578 -0.456462,-0.216216 -0.626307,-0.253116 -1.269707,-0.275851 -0.698279,-0.02467 -0.7993,-0.0073 -1.686978,0.291659 -1.673757,0.563529 -1.994397,0.451794 -2.993552,-1.043171 -0.257307,-0.38499 -0.693732,-1.154971 -0.969834,-1.711068 -0.406665,-0.819069 -0.494213,-1.060299 -0.46099,-1.270222 0.08307,-0.524888 0.348673,-0.909401 1.027347,-1.48729 0.366604,-0.312161 0.801333,-0.738077 0.966066,-0.94648 0.552803,-0.699348 0.785613,-1.654221 0.622557,-2.55342 -0.15093,-0.832321 -0.386688,-1.193366 -1.475139,-2.259041 -0.909117,-0.890091 -1.000921,-1.005928 -1.087044,-1.371589 -0.08921,-0.378765 -0.08152,-0.428878 0.148889,-0.970327 0.610601,-1.434893 1.749274,-3.15442 2.26211,-3.41605 0.416715,-0.212591 0.997418,-0.195483 1.66717,0.04913 1.008547,0.368332 1.363141,0.438508 2.022172,0.400198 1.686909,-0.09806 2.79779,-1.200978 3.113469,-3.091138 0.229638,-1.374988 0.609787,-1.868152 1.559984,-2.023756 0.594173,-0.0973 2.814154,-0.0973 3.408328,0 0.950197,0.155604 1.330345,0.648768 1.559984,2.023756 0.168533,1.009116 0.517616,1.714774 1.127695,2.279601 0.577628,0.534782 1.133609,0.761998 1.985773,0.811537 0.65903,0.03831 1.013624,-0.03187 2.022173,-0.400198 1.092451,-0.398975 1.734828,-0.231128 2.355208,0.615396 0.468015,0.638617 1.342437,2.180123 1.614161,2.845586 0.206747,0.506329 0.207883,0.518881 0.08516,0.941035 -0.113338,0.389868 -0.206143,0.504378 -1.045132,1.289564 -0.663402,0.620858 -0.988023,0.98825 -1.161435,1.314464 -0.600631,1.129873 -0.482141,2.537697 0.296496,3.522746 0.167984,0.212517 0.574772,0.616213 0.903971,0.897102 0.704111,0.60078 0.915472,0.879078 1.047154,1.378783 l 0.09703,0.368219 -0.514118,1.031746 c -0.521434,1.04643 -1.27045,2.252851 -1.644987,2.649538 -0.262536,0.278063 -0.658886,0.443267 -1.063462,0.443267 -0.175037,0 -0.734056,-0.139996 -1.242266,-0.311104 -0.804253,-0.270779 -1.01283,-0.310863 -1.609204,-0.309256 -1.093175,0.003 -1.940544,0.422744 -2.56633,1.2714 -0.358498,0.486171 -0.545329,1.017325 -0.749969,2.132116 -0.162514,0.88532 -0.400258,1.269523 -0.952871,1.539889 -0.421912,0.206423 -0.477811,0.213117 -1.963943,0.235146 -0.841317,0.01247 -1.719142,-0.01108 -1.950716,-0.05234 z m 2.716083,-7.967013 c 3.472854,-0.730539 5.341777,-4.469601 3.809706,-7.621895 -0.56628,-1.165142 -1.343761,-1.944255 -2.527055,-2.532373 -1.827377,-0.908234 -4.188151,-0.642146 -5.695391,0.641941 -1.413477,1.204205 -1.998852,2.438886 -2.002506,4.223707 -0.0016,0.764329 0.03105,1.038922 0.180155,1.516628 0.844497,2.705706 3.543114,4.338266 6.235091,3.771992 z"
     id="path1632" />
</svg>
